"0","covar_clean_filt_noX_PCs = covar_clean_filt_noX %>% "
"0","  # add PCs"
"0","  left_join(sig_pcs) %>% "
"0","  # re-merge strain & substrain"
"0","  unite(""strain"", c(strain, substrain), na.rm = TRUE) %>% "
"0","  # drop unneeded columns"
"0","  dplyr::select(-covariate_strain, -metadata_strain, -rna_concentration, "
"0","                -latitude, -longitude)"
"1","[38;5;232mJoining, by = ""sample""[39m
"
