"0","df$rep_1 <- as.integer(df$rep_1)"
"2","NAs introduced by coercion"
"0","df$average <- as.integer(df$average)"
"2","NAs introduced by coercion"
"0","df$adj_avg <- as.integer(df$adj_avg)"
"2","NAs introduced by coercion"
"0","df$cells_uL <- as.integer(df$cells_uL)"
"2","NAs introduced by coercion"
"0","df$plate_count <- as.integer(df$plate_count)"
"2","NAs introduced by coercion"
"0","df$cell_by_plate <- as.integer(df$cell_by_plate)"
"0","#df$od <- as.integer(df$od)"
"0","colnames(df)[19] <- ""notes"""
"0","df$notes <- as.character(df$notes)"
"0","#summary(df)"
