"0","lysine_boxplot_h3 <- ggplot(filter(df_lysine, strain!=""CalibStd"" & nectar==""High"" | strain!=""CalibStd"" & nectar==""Cond""), aes(x=Genotype, y=difference_uM, color=Genotype)) +"
"0","  geom_boxplot() +"
"0","  geom_jitter(aes(alpha=0.75)) +"
"0","  facet_wrap(.~nectar) +"
"0","  theme(axis.text.x = element_text(angle = 90, vjust = 0.5, hjust=1), legend.position=""none"") +"
"0","  ylab(""Change in concentration (uM)"") +"
"0","  scale_color_manual(values = genotype_colors) +"
"0","  stat_compare_means(comparisons = list(c(""Group1"", ""Group2""), c(""Group1"", ""Group3""), c(""Group2"", ""Group3"")), method=""t.test"", aes(label=..p.signif..))  +"
"0","  geom_hline(yintercept=0, linetype=""dashed"", color = ""grey"")"
"0",""
"0","lysine_boxplot_h3"
