"0",""
"0","cpm_inv_norm_annot = counts_filt %>% "
"0","  dplyr::select(chr, start, end, phenotype_id) %>% "
"0","  left_join(cpm_inv_norm %>% "
"0","              as.data.frame() %>% "
"0","              rownames_to_column(var = ""phenotype_id""))"
"1","[38;5;232mJoining, by = ""phenotype_id""[39m
"
"0","cpm_inv_norm_annot[1:5,1:7]"
