PMO sample ID,New tube says: , Sample name,Our PCR tubes say:, Barcode, Plate name, Plate Well, Project name, Sample format
194533,  PEN56515A1,  Y642_high_1,5,  27-367518,  ,  ,  Metschnikowia reukaufii Y642 transcriptome pilot,  Aqueous
194534,  PEN56515A2,  Y642_high_2,6,  27-367521,  ,  ,  Metschnikowia reukaufii Y642 transcriptome pilot,  Aqueous
194535,  PEN56515A3,  Y642_con_1,7,  27-367519,  ,  ,  Metschnikowia reukaufii Y642 transcriptome pilot,  Aqueous
194536,  PEN56515A4,  Y642_con_2,8,  27-367520,  ,  ,  Metschnikowia reukaufii Y642 transcriptome pilot,  Aqueous
194537,  PEN56352A1,  MY0551_con_1,1,  27-367514,  ,  ,  Metschnikowia reukaufii MY0551 transcriptome pilot,  Aqueous
194538,  PEN56352A2,  MY0551_con_2,2,  27-367515,  ,  ,  Metschnikowia reukaufii MY0551 transcriptome pilot,  Aqueous
194539,  PEN56352A3,  MY0551_high_1,3,  27-367516,  ,  ,  Metschnikowia reukaufii MY0551 transcriptome pilot,  Aqueous
194540,  PEN56352A4,  MY0551_high_2,4,  27-367517,  ,  ,  Metschnikowia reukaufii MY0551 transcriptome pilot,  Aqueous