"0",""
"0","#initialize terms"
"0","i=552"
"0","selected_gene=NULL"
"0","tpm_norm=FALSE"
"0","plot_environment_ignored = TRUE"
"0",""
"0","  # demonstrate how expression patterns for given gene vary in the context of this genotype and treatment condition"
"0","  "
"0","  # input data, ""sig"", is assumed to have one entry per gene, "
"0","  # and the following columns, which are the output of tensorQTL's interaction function:"
"0","    # transcriptId, variant_id,                                   <- QTL identifiers"
"0","    # pval_g, b_g, b_g_se,                                        <- genotype association"
"0","    # pval_i, b_i, b_i_se,                                        <- treatment association"
"0","    # pval_gi, b_gi, b_gi_se, tests_emt, pval_emt, pval_adj_bh    <- interaction association"
"0",""
"0","  #define variables"
"0","`%notin%` <- Negate(`%in%`)"
"0",""
"0","  if(is.null(selected_gene)){"
"0","    # if no gene is provided, use provided or default row index"
"0","    selected_gene=df[i,]$transcriptId"
"0","    selected_snp=df[i,]$variant_id"
"0","  } else {"
"0","    # provide an error if selected gene is not in the input data"
"0","    if(selected_gene %notin% df$transcriptId){"
"0","      stop(paste0(""\n Error: Selected gene not found in `transcriptId` column of input: "", selected_gene, ""\n""))"
"0","    }"
"0","    # get index of row"
"0","    i = which(df$transcriptId == selected_gene)"
"0","    # get corresponding variant"
"0","    selected_snp=df[i,]$variant_id"
"0","  }"
"0",""
"0","  # pull beta, se, and significance status (* for sig) for annotations"
"0","  beta_geno = df[i,] %>% pull(b_g) %>% signif(2)"
"0","  se_geno = df[i,] %>% pull(b_g_se) %>% signif(2)"
"0","  sig_geno = ifelse(df[i,] %>% mutate(pval_adj = pval_g*tests_emt) %>% pull(pval_adj) <= 0.05, ""*"", """")"
"0","  "
"0","  beta_gxe = df[i,] %>% pull(b_gi) %>% signif(2)"
"0","  se_gxe = df[i,] %>% pull(b_gi_se) %>% signif(2)"
"0","  sig_gxe = ifelse(df[i,] %>% pull(pval_emt) <= 0.05, ""*"", """")"
"0","  "
"0","  beta_env = df[i,] %>% pull(b_i) %>% signif(2)"
"0","  se_env = df[i,] %>% pull(b_i_se) %>% signif(2)"
"0","  sig_env = ifelse(df[i,] %>% mutate(pval_adj = pval_i*tests_emt) %>% pull(pval_adj) <= 0.05, ""*"", """")"
"0","  "
"0","  # load data"
"0","  genotypes = fread(paste0(""./raw_data/SNPs_genotypes_filtered.tensorQTL.txt"")) %>% "
"0","    filter(snp == selected_snp) %>% "
"0","      group_by(snp) %>% "
"0","      gather(key = ""sample"", value = ""genotype"", -snp)"
"0","  "
"0","  if ( tpm_norm ){"
"0","    tpm = fread(paste0(""./raw_data/GE_counts_filtered_invnorm.tensorQTL.bed.gz"")) %>% "
"0","    separate(phenotype_id, into=c(""JGI"", ""genome"", ""GeneID""), sep=""\\|"") %>%"
"0","    dplyr::select(""GeneID"", starts_with(""fukami"")) %>%"
"0","    filter(GeneID == selected_gene) %>% "
"0","    group_by(GeneID) %>% "
"0","    gather(key = ""sample"", value = ""tpm"", -GeneID)"
"0","  } else {"
"0","    tpm = fread(paste0(""./raw_data/GE_TPM_withTSS_filtered.txt""))  %>% "
"0","    separate(phenotype_id, into=c(""JGI"", ""genome"", ""GeneID""), sep=""\\|"") %>%"
"0","    dplyr::select(""GeneID"", starts_with(""fukami"")) %>% "
"0","      filter(GeneID == selected_gene) %>% "
"0","      group_by(GeneID) %>% "
"0","      gather(key = ""sample"", value = ""tpm"", -GeneID)"
"0","  }"
"0","  "
"0","  covars = fread(paste0(""./raw_data/covariates_complete_substrain_clean_nodupes_filtered.txt"")) "
"0","    #filter(sample %in% genotypes$sample)"
"0",""
"0","  # genotypes[1:5,1:3]"
"0","  # tpm[1:5,1:3]"
"0","  # head(covars)"
"0","  "
"0","  # dataframe:"
"0","  # sample, strain, treatment, genotype, counts, tpm"
"0","  to_plot_eqtls = tpm %>% "
"0","    # combine data"
"0","    left_join(covars %>% dplyr::select(sample, strain, treatment,"
"0","                                       plate, subpopulation, site) %>% "
"0","    left_join(genotypes)) %>% "
"0","    # clean up plotting variables"
"0","    mutate(genotype = ifelse(genotype == -1, NA, genotype)) %>% "
"0","    mutate(genotype = factor(genotype, levels = c(0, 1, 2), ordered=T)) %>% "
"0","    mutate(treatment = factor(treatment, levels = c(""Treatment Ignored"", ""conditioned"", ""high""))) %>% "
"0","    # drop samples with missing genotype at this snp"
"0","    filter(genotype != -1) %>% "
"0","    # drop repeated rows"
"0","    distinct() %>% "
"0","    # take the average TPM for repeats"
"0","    group_by(GeneID, strain, treatment, subpopulation, site, genotype) %>% "
"0","    summarise(tpm = median(tpm, na.rm = T)) %>% "
"0","    ungroup()"
"2","Joining, by = ""sample"""
"2","Joining, by = ""sample"""
"2","`summarise()` has grouped output by 'GeneID', 'strain', 'treatment', 'subpopulation', 'site'. You can override using the `.groups` argument."
"0","  "
"0","  if(plot_environment_ignored == TRUE){"
"0","    # if plotting environment is requested (default), duplicate the data"
"0","    # and create a dummy treatment / environment variable"
"0","    to_plot_eqtls = rbind(to_plot_eqtls, to_plot_eqtls %>% mutate(treatment = ""ignoring environment""))"
"0","  }"
"0","  "
"0","  #filter to remove ""ignore environment"" "
"0","to_plot_eqtls_2 <- to_plot_eqtls %>% filter(treatment!=""ignoring environment"") %>% mutate(tpm_0.1 = tpm + 0.1)"
"0","  # dim(to_plot_eqtls)"
"0","  # head(to_plot_eqtls)"
"0",""
"0","#   p = to_plot_eqtls %>% "
"0","#     # create violin plot"
"0","#     ggplot(aes(x = genotype, y = tpm+0.1)) +"
"0","#     geom_violin()"
"0","#   # add data points"
"0","#   p = p + geom_jitter(aes(color = subpopulation), alpha = 0.6, width = 0.2)"
"0","#   # log-transform the scale"
"0","#   p = p + scale_y_continuous(trans=""log10"") # add custom labels and axis title here"
"0","#   # customize theme"
"0","#   p = p + theme_bw(base_size=12)"
"0","#   # facet by treatment"
"0","#   p = p + facet_wrap( ~ treatment)"
"0","#   # add title"
"0","#   # p = p + ggtitle(paste0(selected_gene, "" expression vs "", selected_snp, "" genotype""),"
"0","#   #           subtitle = paste0(""Gxe: "", beta_gxe, ""±"", se_gxe, sig_gxe, "
"0","#   #                             "" | Geno: "", beta_geno, ""±"", se_geno, sig_geno, "
"0","#   #                             "" | Env: "", beta_env, ""±"", se_env, sig_env))"
"0","#   # return plot"
"0","# p"
"0",""
