"0","# add rows with fpkm_mean = 0 for missing transcriptIds
gene_avg_df_complete <- gene_avg_df %>%
  complete(transcriptId, strain, treatment) %>%
  mutate(fpkm_mean = ifelse(is.na(fpkm_mean), 0, fpkm_mean))
"
"1","[1m[33mError[39m in `reframe()`:[22m
[38;5;252m[36mℹ[38;5;252m In argument: `complete(data = pick(everything()), ..., fill = fill, explicit = explicit)`.
[36mℹ[38;5;252m In group 1: `strain = CY11`, `treatment = low`, `transcriptId = ""10001""`.[39m
[1mCaused by error:[22m
[33m![39m object 'transcriptId' not found
Backtrace:
[90m  1. [39m... %>% ...
[90m 15. [39m[1mtidyr[22m:::complete.data.frame(...)
[90m 17. [39mtidyr:::expand.data.frame(data, ...)
[90m 18. [39mtidyr:::grid_dots(..., `_data` = data)
[90m 19. [39m[1mrlang[22m::eval_tidy(dot, data = mask)
"
