=====================
 PROJECT INFORMATION 
=====================
Scientific Program: Fungal
Organism Name: Metschnikowia reukaufii
Principal Investigator: Tadashi Fukami
Proposal ID: 503425
Sequencing Project ID: 1202658,1202659,1202660,1202661,1202662,1202663,1202664,1202665,1202666,1202667,1202668,1202669,1202670,1202671,1202672,1202673,1202674,1202675,1202676,1202677,1202678,1202679,1202680,1202682,1202683,1202684,1202685,1202687,1202688,1202689,1202690,1202691,1202692,1202693,1202694,1202695,1202696,1202697,1202698,1202699,1202700,1202701,1202702,1202703,1202704,1202705,1202706,1202707,1202708,1202709,1202710,1202711,1202712,1202713,1202714,1202715,1202716,1202717,1202718,1202719,1202720,1202721,1202722,1202723,1202724,1202725,1202726,1202727,1202728,1202729,1202730,1202731,1202732,1202733,1202734,1202735,1202736,1202737,1202738,1202739,1202740,1202741,1202742,1202743,1202744,1202745,1202746,1202747,1202748,1202749,1202750,1202751,1202752,1202753,1202754,1202755,1202756,1202757,1202758,1202759,1242816,1242818,1242819,1242820
Final Deliverable Project ID: 1202454,1202454,1202456,1202458,1202460,1202462,1202464,1202466,1202468,1202470,1202472,1202474,1202476,1202478,1202480,1202482,1202484,1202486,1202488,1202490,1202492,1202494,1202496,1202498,1202502,1202504,1202506,1202508,1202512,1202514,1202516,1202518,1202520,1202522,1202524,1202526,1202528,1202530,1202532,1202534,1202536,1202538,1202540,1202542,1202544,1202546,1202548,1202550,1202552,1202554,1202556,1202558,1202560,1202562,1202564,1202566,1202568,1202570,1202572,1202574,1202576,1202578,1202580,1202582,1202584,1202586,1202588,1202590,1202592,1202594,1202596,1202598,1202600,1202602,1202604,1202606,1202608,1202610,1202612,1202614,1202616,1202618,1202620,1202622,1202624,1202626,1202628,1202630,1202632,1202634,1202636,1202638,1202640,1202642,1202644,1202646,1202648,1202650,1202652,1202654,1202656,1242801,1242805,1242807,1242809
Proposal Name: Genomic basis of the ecological success of nectar yeasts in their carbon-stressed and nitrogen-limited environments
Sequencing Project Name: Metschnikowia reukaufii CY11 transcriptome,Metschnikowia reukaufii CY13 transcriptome,Metschnikowia reukaufii CY7 transcriptome,Metschnikowia reukaufii CY9 transcriptome,Metschnikowia reukaufii MR1 transcriptome,Metschnikowia reukaufii MY0121 transcriptome,Metschnikowia reukaufii MY0131 transcriptome,Metschnikowia reukaufii MY0141 transcriptome,Metschnikowia reukaufii MY0182 transcriptome,Metschnikowia reukaufii MY0202 transcriptome,Metschnikowia reukaufii MY0281 transcriptome,Metschnikowia reukaufii MY0551 transcriptome,Metschnikowia reukaufii MY0771 transcriptome,Metschnikowia reukaufii MY0781 transcriptome,Metschnikowia reukaufii MY0792 transcriptome,Metschnikowia reukaufii MY0793 transcriptome,Metschnikowia reukaufii VY0221 transcriptome,Metschnikowia reukaufii VY0341 transcriptome,Metschnikowia reukaufii VY0342 transcriptome,Metschnikowia reukaufii VY0351 transcriptome,Metschnikowia reukaufii VY0662 transcriptome,Metschnikowia reukaufii VY1132 transcriptome,Metschnikowia reukaufii VY1133 transcriptome,Metschnikowia reukaufii Y1092 transcriptome,Metschnikowia reukaufii Y1116 transcriptome,Metschnikowia reukaufii Y312 transcriptome,Metschnikowia reukaufii Y382 transcriptome,Metschnikowia reukaufii Y384 transcriptome,Metschnikowia reukaufii Y385 transcriptome,Metschnikowia reukaufii Y40 transcriptome,Metschnikowia reukaufii Y41 transcriptome,Metschnikowia reukaufii Y412 transcriptome,Metschnikowia reukaufii Y413 transcriptome,Metschnikowia reukaufii Y413a transcriptome,Metschnikowia reukaufii Y415 transcriptome,Metschnikowia reukaufii Y42 transcriptome,Metschnikowia reukaufii Y466 transcriptome,Metschnikowia reukaufii Y467 transcriptome,Metschnikowia reukaufii Y514 transcriptome,Metschnikowia reukaufii Y515 transcriptome,Metschnikowia reukaufii Y520 transcriptome,Metschnikowia reukaufii Y556 transcriptome,Metschnikowia reukaufii Y557 transcriptome,Metschnikowia reukaufii Y577 transcriptome,Metschnikowia reukaufii Y620 transcriptome,Metschnikowia reukaufii Y633 transcriptome,Metschnikowia reukaufii Y641 transcriptome,Metschnikowia reukaufii Y642 transcriptome,Metschnikowia reukaufii Y643 transcriptome,Metschnikowia reukaufii Y644 transcriptome,Metschnikowia reukaufii Y680 transcriptome,Metschnikowia reukaufii Y681 transcriptome,Metschnikowia reukaufii Y75 transcriptome,Metschnikowia reukaufii Y76 transcriptome,Metschnikowia reukaufii Y797 transcriptome,Metschnikowia reukaufii Y798 transcriptome,Metschnikowia reukaufii Y810 transcriptome,Metschnikowia reukaufii Y817 transcriptome,Metschnikowia reukaufii Y818 transcriptome,Metschnikowia reukaufii Y819 transcriptome,Metschnikowia reukaufii Y82 transcriptome,Metschnikowia reukaufii Y820 transcriptome,Metschnikowia reukaufii Y821 transcriptome,Metschnikowia reukaufii Y825 transcriptome,Metschnikowia reukaufii Y837 transcriptome,Metschnikowia reukaufii Y843 transcriptome,Metschnikowia reukaufii Y844 transcriptome,Metschnikowia reukaufii Y845 transcriptome,Metschnikowia reukaufii Y846 transcriptome,Metschnikowia reukaufii Y850 transcriptome,Metschnikowia reukaufii Y851 transcriptome,Metschnikowia reukaufii Y856 transcriptome,Metschnikowia reukaufii Y857 transcriptome,Metschnikowia reukaufii Y858 transcriptome,Metschnikowia reukaufii Y859 transcriptome,Metschnikowia reukaufii Y864 transcriptome,Metschnikowia reukaufii Y865 transcriptome,Metschnikowia reukaufii Y866 transcriptome,Metschnikowia reukaufii Y867 transcriptome,Metschnikowia reukaufii Y883 transcriptome,Metschnikowia reukaufii Y884 transcriptome,Metschnikowia reukaufii Y885 transcriptome,Metschnikowia reukaufii Y886 transcriptome,Metschnikowia reukaufii Y893 transcriptome,Metschnikowia reukaufii Y894 transcriptome,Metschnikowia reukaufii Y895 transcriptome,Metschnikowia reukaufii Y896 transcriptome,Metschnikowia reukaufii Y914 transcriptome,Metschnikowia reukaufii Y919 transcriptome,Metschnikowia reukaufii Y920 transcriptome,Metschnikowia reukaufii Y93 transcriptome,Metschnikowia reukaufii Y939 transcriptome,Metschnikowia reukaufii Y94 transcriptome,Metschnikowia reukaufii Y940 transcriptome,Metschnikowia reukaufii Y95 transcriptome,Metschnikowia reukaufii Y96 transcriptome,Metschnikowia reukaufii Y961 transcriptome,Metschnikowia reukaufii Y962 transcriptome,Metschnikowia reukaufii Y968 transcriptome,Metschnikowia reukaufii Y976 transcriptome,Metschnikowia reukaufii Y982 transcriptome,Metschnikowia reukaufii Y983 transcriptome,Metschnikowia reukaufii Y988 transcriptome,Metschnikowia reukaufii Y989 transcriptome

=====================
 SAMPLE SUMMARY      
=====================
1=libraryName	2=SampleId	3=rawReads	4=filteredReads	5=sampleName	6=conditionNumber	7=sequencerType	8=runType	9=fileUsed
GUSAU	189816	28190738	27766858	fukami697	1	NovaSeq S4	2x151	52365.1.312552.TAGTGACC-GGTCACTA.filter-RNA.fastq.gz
GUPNG	189818	37803378	37198972	fukami699	2	NovaSeq S4	2x151	52363.4.312353.ACTCTCGA-TCGAGAGT.filter-RNA.fastq.gz
GUOOY	189819	27894136	27693930	fukami700	3	NovaSeq S4	2x151	52363.3.312215.GAAGTACC-GGTACTTC.filter-RNA.fastq.gz
GUPTY	189820	41757012	41343746	fukami701	4	NovaSeq S4	2x151	52363.4.312353.GAAGTTGG-CCAACTTC.filter-RNA.fastq.gz
GUONT	189821	39398664	38773952	fukami702	5	NovaSeq S4	2x151	52363.3.312215.TACGCCTT-AAGGCGTA.filter-RNA.fastq.gz
GUPOW	189822	52725858	52029780	fukami703	6	NovaSeq S4	2x151	52363.4.312353.CTGCACTT-AAGTGCAG.filter-RNA.fastq.gz
GUOOO	189823	41828938	41407646	fukami704	7	NovaSeq S4	2x151	52363.3.312215.CAGAGTGT-ACACTCTG.filter-RNA.fastq.gz
GUUZP	189824	33322958	32383140	fukami705	8	NovaSeq S4	2x151	52390.1.316167.GCATGTCT-AGACATGC.filter-RNA.fastq.gz
GUUWU	189825	34109926	33778458	fukami706	9	NovaSeq S4	2x151	52390.1.316167.CACGTTGT-ACAACGTG.filter-RNA.fastq.gz
GUUZH	189826	28286268	27904162	fukami707	10	NovaSeq S4	2x151	52390.1.316167.GACATTCC-GGAATGTC.filter-RNA.fastq.gz
GUYPT	189827	31943070	31368220	fukami708	11	NovaSeq S4	2x151	52370.3.313929.AACGTGGA-TCCACGTT.filter-RNA.fastq.gz
GUPSC	189828	39662838	39359790	fukami709	12	NovaSeq S4	2x151	52363.4.312353.AAGCACTG-CAGTGCTT.filter-RNA.fastq.gz
GUUUS	189829	27144114	26211684	fukami710	13	NovaSeq S4	2x151	52390.1.316167.ATTGAGCC-GGCTCAAT.filter-RNA.fastq.gz
GUNWG	189830	28166794	27640980	fukami711	14	NovaSeq S4	2x151	52365.1.312552.GGACAATC-GATTGTCC.filter-RNA.fastq.gz
GUPNW	189831	55309948	55048528	fukami712	15	NovaSeq S4	2x151	52363.4.312353.GGCGTTAT-ATAACGCC.filter-RNA.fastq.gz
GUOPU	189833	29792616	29548352	fukami754	16	NovaSeq S4	2x151	52363.3.312215.AAGAGCCA-TGGCTCTT.filter-RNA.fastq.gz
GUGWS	189834	43468642	42738580	fukami755	17	NovaSeq S4	2x151	52360.4.311923.CCTTCCTT-AAGGAAGG.filter-RNA.fastq.gz
GUYHB	189835	34724592	34409600	fukami756	18	NovaSeq S4	2x151	52370.3.313929.GTCTGATC-GATCAGAC.filter-RNA.fastq.gz
GUYGH	189836	30832232	30506372	fukami757	19	NovaSeq S4	2x151	52370.3.313929.TACATCGG-CCGATGTA.filter-RNA.fastq.gz
GUNBP	189837	48039216	47341274	fukami758	20	NovaSeq S4	2x151	52363.4.312353.TCATCACC-GGTGATGA.filter-RNA.fastq.gz
GUYHU	189838	31756254	31481192	fukami759	21	NovaSeq S4	2x151	52370.3.313929.GCTATCCT-AGGATAGC.filter-RNA.fastq.gz
GUYHG	189839	28528680	28367436	fukami760	22	NovaSeq S4	2x151	52370.3.313929.GATTACCG-CGGTAATC.filter-RNA.fastq.gz
GUGWP	189840	35682030	35115774	fukami761	23	NovaSeq S4	2x151	52360.4.311923.CAATCGAC-GTCGATTG.filter-RNA.fastq.gz
GUGUW	189841	34283000	33430454	fukami762	24	NovaSeq S4	2x151	52360.4.311923.GCTACGTT-AACGTAGC.filter-RNA.fastq.gz
GUNCB	189842	32364254	31861814	fukami763	25	NovaSeq S4	2x151	52363.4.312353.ACGGTCTT-AAGACCGT.filter-RNA.fastq.gz
GUYNC	189843	42500782	42072666	fukami764	26	NovaSeq S4	2x151	52370.3.313929.ACCACGAT-ATCGTGGT.filter-RNA.fastq.gz
GUYGG	189844	26608984	26142200	fukami765	27	NovaSeq S4	2x151	52370.3.313929.CGTGATCA-TGATCACG.filter-RNA.fastq.gz
GUYNP	189845	27211698	26668544	fukami766	28	NovaSeq S4	2x151	52370.3.313929.GCATACAG-CTGTATGC.filter-RNA.fastq.gz
GUGWX	189846	52732800	52002582	fukami767	29	NovaSeq S4	2x151	52360.4.311923.TACGCCTT-AAGGCGTA.filter-RNA.fastq.gz
GUYOO	189847	31611776	30808752	fukami768	30	NovaSeq S4	2x151	52370.3.313929.CTCCTAGA-TCTAGGAG.filter-RNA.fastq.gz
GUNUY	189848	25248064	24733356	fukami769	31	NovaSeq S4	2x151	52365.1.312552.AGTCGACA-TGTCGACT.filter-RNA.fastq.gz
GUNOW	189849	28095082	27785538	fukami770	32	NovaSeq S4	2x151	52365.1.312552.CGTTATGC-GCATAACG.filter-RNA.fastq.gz
GUNBC	189850	31408326	30950526	fukami771	33	NovaSeq S4	2x151	52363.4.312353.GGACTGTT-AACAGTCC.filter-RNA.fastq.gz
GUYOA	189851	30744214	30520664	fukami772	34	NovaSeq S4	2x151	52370.3.313929.ACTGCTAG-CTAGCAGT.filter-RNA.fastq.gz
GUYGX	189852	26130930	25640994	fukami773	35	NovaSeq S4	2x151	52370.3.313929.ACATTGCG-CGCAATGT.filter-RNA.fastq.gz
GUGXN	189853	44943328	44529432	fukami774	36	NovaSeq S4	2x151	52360.4.311923.CGACCATT-AATGGTCG.filter-RNA.fastq.gz
GUNOO	189854	23725756	23480374	fukami775	37	NovaSeq S4	2x151	52363.4.312353.TGTCCAGA-TCTGGACA.filter-RNA.fastq.gz
GUNAZ	189855	39898538	38975668	fukami776	38	NovaSeq S4	2x151	52363.4.312353.TGTACACC-GGTGTACA.filter-RNA.fastq.gz
GUYNH	189856	29094534	28791526	fukami777	39	NovaSeq S4	2x151	52370.3.313929.TCCTTAGC-GCTAAGGA.filter-RNA.fastq.gz
GUYNA	189857	28331308	27471134	fukami778	40	NovaSeq S4	2x151	52370.3.313929.ACATAGGC-GCCTATGT.filter-RNA.fastq.gz
GUNCS	189858	37375338	36862976	fukami779	41	NovaSeq S4	2x151	52363.4.312353.TGACTGAC-GTCAGTCA.filter-RNA.fastq.gz
GUYHH	189859	34029610	33060532	fukami780	42	NovaSeq S4	2x151	52370.3.313929.ATGGAAGG-CCTTCCAT.filter-RNA.fastq.gz
GUNBH	189860	25626172	25321554	fukami781	43	NovaSeq S4	2x151	52363.4.312353.GTTCGGTT-AACCGAAC.filter-RNA.fastq.gz
GUNCW	189861	41238912	40312048	fukami782	44	NovaSeq S4	2x151	52363.4.312353.TACGCCTT-AAGGCGTA.filter-RNA.fastq.gz
GUGUC	189864	37159812	36559576	fukami785	45	NovaSeq S4	2x151	52360.4.311923.AGCTAACC-GGTTAGCT.filter-RNA.fastq.gz
GUNHZ	189865	27317158	27026544	fukami786	46	NovaSeq S4	2x151	52363.4.312353.TATTCGCC-GGCGAATA.filter-RNA.fastq.gz
GUYNT	189866	35460388	35121022	fukami787	47	NovaSeq S4	2x151	52370.3.313929.TGCGAACT-AGTTCGCA.filter-RNA.fastq.gz
GUGTZ	189867	33696108	33300944	fukami788	48	NovaSeq S4	2x151	52360.4.311923.CCAGTGTT-AACACTGG.filter-RNA.fastq.gz
GUWYG	189868	34793824	34247958	fukami789	49	NovaSeq S4	2x151	52390.2.316305.TAACCGGT-ACCGGTTA.filter-RNA.fastq.gz
GUGYT	189869	40089430	39477176	fukami790	50	NovaSeq S4	2x151	52360.4.311923.CCAAGCAA-TTGCTTGG.filter-RNA.fastq.gz
GUNCP	189870	29631596	29170302	fukami791	51	NovaSeq S4	2x151	52363.4.312353.CCTTCCTT-AAGGAAGG.filter-RNA.fastq.gz
GUOSH	189871	57630462	57329072	fukami792	52	NovaSeq S4	2x151	52363.3.312215.ACCGTAGT-ACTACGGT.filter-RNA.fastq.gz
GUGTS	189872	36048464	35637588	fukami793	53	NovaSeq S4	2x151	52360.4.311923.GAGCTCAA-TTGAGCTC.filter-RNA.fastq.gz
GUYOT	189873	28042758	27828476	fukami794	54	NovaSeq S4	2x151	52370.3.313929.AAGTGTCG-CGACACTT.filter-RNA.fastq.gz
GUGXC	189874	35289116	34836512	fukami795	55	NovaSeq S4	2x151	52360.4.311923.AGAATGCC-GGCATTCT.filter-RNA.fastq.gz
GUGXP	189875	30906836	30656906	fukami796	56	NovaSeq S4	2x151	52360.4.311923.CACGTTGT-ACAACGTG.filter-RNA.fastq.gz
GUNOS	189876	27220350	26776798	fukami797	57	NovaSeq S4	2x151	52363.4.312353.AGCTCCTA-TAGGAGCT.filter-RNA.fastq.gz
GUNWH	189877	34859942	34473008	fukami798	58	NovaSeq S4	2x151	52365.1.312552.AAGTGTCG-CGACACTT.filter-RNA.fastq.gz
GUYGO	189878	28486090	28247016	fukami799	59	NovaSeq S4	2x151	52370.3.313929.TTCTCTCG-CGAGAGAA.filter-RNA.fastq.gz
GUNAS	189879	27130640	26157656	fukami800	60	NovaSeq S4	2x151	52363.4.312353.ATAGCGGT-ACCGCTAT.filter-RNA.fastq.gz
GUGTU	189881	35507224	35175306	fukami802	61	NovaSeq S4	2x151	52360.4.311923.CGGTTGTT-AACAACCG.filter-RNA.fastq.gz
GUUSX	189882	15487844	13943336	fukami803	62	NovaSeq S4	2x151	52390.1.316167.ATAGCGGT-ACCGCTAT.filter-RNA.fastq.gz
GUNNZ	189883	29572648	29071310	fukami804	63	NovaSeq S4	2x151	52363.4.312353.AGTGCAGT-ACTGCACT.filter-RNA.fastq.gz
GUYGU	189884	33628124	32919322	fukami805	64	NovaSeq S4	2x151	52370.3.313929.ACTCCATC-GATGGAGT.filter-RNA.fastq.gz
GUYCN	189885	34843642	33791950	fukami806	65	NovaSeq S4	2x151	52370.3.313929.TTACGGCT-AGCCGTAA.filter-RNA.fastq.gz
GUYOH	189886	34243006	33396640	fukami807	66	NovaSeq S4	2x151	52370.3.313929.AAGCACTG-CAGTGCTT.filter-RNA.fastq.gz
GUYCO	189887	28791164	28518660	fukami808	67	NovaSeq S4	2x151	52370.3.313929.TTCAGGAG-CTCCTGAA.filter-RNA.fastq.gz
GUWZB	189889	30007112	29304188	fukami810	68	NovaSeq S4	2x151	52390.2.316305.GTGAATCC-GGATTCAC.filter-RNA.fastq.gz
GUPPS	189890	47067920	46685036	fukami811	69	NovaSeq S4	2x151	52363.4.312353.CATCGTGA-TCACGATG.filter-RNA.fastq.gz
GUNOB	189891	25048478	24269416	fukami812	70	NovaSeq S4	2x151	52363.4.312353.ACACCAGT-ACTGGTGT.filter-RNA.fastq.gz
GUYON	189892	44733386	44162860	fukami813	71	NovaSeq S4	2x151	52370.3.313929.GTCGGTAA-TTACCGAC.filter-RNA.fastq.gz
GUNHG	189893	29607106	28202082	fukami814	72	NovaSeq S4	2x151	52363.4.312353.TGGCATGT-ACATGCCA.filter-RNA.fastq.gz
GUGYZ	189894	31593302	30338590	fukami815	73	NovaSeq S4	2x151	52360.4.311923.AGAAGCGT-ACGCTTCT.filter-RNA.fastq.gz
GUWZU	189895	32283810	31734928	fukami816	74	NovaSeq S4	2x151	52390.2.316305.ACACCAGT-ACTGGTGT.filter-RNA.fastq.gz
GUUYX	189896	34460884	33906416	fukami817	75	NovaSeq S4	2x151	52390.1.316167.GCGATAGT-ACTATCGC.filter-RNA.fastq.gz
GUPSZ	189897	30993176	30609682	fukami818	76	NovaSeq S4	2x151	52363.4.312353.TGGTACAG-CTGTACCA.filter-RNA.fastq.gz
GUPPU	189898	33632312	33414202	fukami819	77	NovaSeq S4	2x151	52363.4.312353.AGAGTAGC-GCTACTCT.filter-RNA.fastq.gz
GUNNG	189899	25932006	25517026	fukami820	78	NovaSeq S4	2x151	52363.4.312353.TTGAGGCA-TGCCTCAA.filter-RNA.fastq.gz
GUGYW	189901	25636634	25250846	fukami822	79	NovaSeq S4	2x151	52360.4.311923.ATGGTCCA-TGGACCAT.filter-RNA.fastq.gz
GUWZS	189902	38727348	37924250	fukami823	80	NovaSeq S4	2x151	52390.2.316305.AGTGCAGT-ACTGCACT.filter-RNA.fastq.gz
GUNHX	189903	26415248	25853578	fukami824	81	NovaSeq S4	2x151	52363.4.312353.AAGAGCCA-TGGCTCTT.filter-RNA.fastq.gz
GUUTZ	189904	39886500	38757124	fukami825	82	NovaSeq S4	2x151	52390.1.316167.GCTACGTT-AACGTAGC.filter-RNA.fastq.gz
GUUWO	189905	41141608	40506686	fukami826	83	NovaSeq S4	2x151	52390.1.316167.GCTGGATT-AATCCAGC.filter-RNA.fastq.gz
GUNGX	189906	33189642	32690260	fukami827	84	NovaSeq S4	2x151	52363.4.312353.CTTGCTGT-ACAGCAAG.filter-RNA.fastq.gz
GUNNX	189907	27014828	26642700	fukami828	85	NovaSeq S4	2x151	52363.4.312353.GATCGAGT-ACTCGATC.filter-RNA.fastq.gz
GUGYX	189908	21756904	21480234	fukami829	86	NovaSeq S4	2x151	52360.4.311923.GTCTAGGT-ACCTAGAC.filter-RNA.fastq.gz
GUNOA	189909	25651856	25427998	fukami830	87	NovaSeq S4	2x151	52363.4.312353.GACATTCC-GGAATGTC.filter-RNA.fastq.gz
GUNNA	189911	30940860	30623644	fukami832	88	NovaSeq S4	2x151	52363.4.312353.TGTACCGT-ACGGTACA.filter-RNA.fastq.gz
GUWYP	189912	28310792	27824800	fukami833	89	NovaSeq S4	2x151	52390.2.316305.AGAAGCGT-ACGCTTCT.filter-RNA.fastq.gz
GUWZN	189913	34225322	30591020	fukami834	90	NovaSeq S4	2x151	52390.2.316305.TCACAGCA-TGCTGTGA.filter-RNA.fastq.gz
GUNWP	189914	26136880	25913116	fukami835	91	NovaSeq S4	2x151	52365.1.312552.CATAACGG-CCGTTATG.filter-RNA.fastq.gz
GUGXX	189915	33073664	32368206	fukami836	92	NovaSeq S4	2x151	52360.4.311923.TGGATCAC-GTGATCCA.filter-RNA.fastq.gz
GUNNH	189916	31591342	31157924	fukami837	93	NovaSeq S4	2x151	52363.4.312353.TTGGACGT-ACGTCCAA.filter-RNA.fastq.gz
GUNHU	189917	30254102	29857692	fukami838	94	NovaSeq S4	2x151	52363.4.312353.ATGGTCCA-TGGACCAT.filter-RNA.fastq.gz
GUGXU	189918	29667770	29205450	fukami839	95	NovaSeq S4	2x151	52360.4.311923.GGATACCA-TGGTATCC.filter-RNA.fastq.gz
GUWZP	189919	34559644	34203194	fukami840	96	NovaSeq S4	2x151	52390.2.316305.CTATCGCA-TGCGATAG.filter-RNA.fastq.gz
GUGYP	189920	24048618	23364468	fukami841	97	NovaSeq S4	2x151	52360.4.311923.CATACCAC-GTGGTATG.filter-RNA.fastq.gz
GUWZX	189921	35735106	34960210	fukami842	98	NovaSeq S4	2x151	52390.2.316305.GCATGTCT-AGACATGC.filter-RNA.fastq.gz
GUWZC	189922	36787118	36316524	fukami843	99	NovaSeq S4	2x151	52390.2.316305.GCGATAGT-ACTATCGC.filter-RNA.fastq.gz
GUNHW	189923	26972744	26421084	fukami844	100	NovaSeq S4	2x151	52363.4.312353.GTCTAGGT-ACCTAGAC.filter-RNA.fastq.gz
GUNHC	189924	27014300	26345946	fukami845	101	NovaSeq S4	2x151	52363.4.312353.TAGTGACC-GGTCACTA.filter-RNA.fastq.gz
GUNNT	189925	27089174	26677724	fukami846	102	NovaSeq S4	2x151	52363.4.312353.CTCGATAC-GTATCGAG.filter-RNA.fastq.gz
GUNHN	189926	28747484	28521114	fukami847	103	NovaSeq S4	2x151	52363.4.312353.TGCTTGGT-ACCAAGCA.filter-RNA.fastq.gz
GUPSP	189927	32243430	32090814	fukami848	104	NovaSeq S4	2x151	52363.4.312353.AAGTGTCG-CGACACTT.filter-RNA.fastq.gz
GUWYX	189928	33123104	30059312	fukami849	105	NovaSeq S4	2x151	52390.2.316305.TTGAGGCA-TGCCTCAA.filter-RNA.fastq.gz
GUGYY	189929	27689098	27300944	fukami850	106	NovaSeq S4	2x151	52360.4.311923.AAGAGCCA-TGGCTCTT.filter-RNA.fastq.gz
GUWZT	189930	30887038	30603454	fukami851	107	NovaSeq S4	2x151	52390.2.316305.GACATTCC-GGAATGTC.filter-RNA.fastq.gz
GUNOC	189931	25431194	25074704	fukami852	108	NovaSeq S4	2x151	52363.4.312353.TGTGGTAC-GTACCACA.filter-RNA.fastq.gz
GUNNS	189932	27908500	27605992	fukami853	109	NovaSeq S4	2x151	52363.4.312353.GCGATAGT-ACTATCGC.filter-RNA.fastq.gz
GUGTX	189933	39121726	38902320	fukami854	110	NovaSeq S4	2x151	52360.4.311923.GCCTTGTT-AACAAGGC.filter-RNA.fastq.gz
GUNHO	189934	26287140	25910606	fukami855	111	NovaSeq S4	2x151	52363.4.312353.CATACCAC-GTGGTATG.filter-RNA.fastq.gz
GUUWY	189935	31136478	30424510	fukami856	112	NovaSeq S4	2x151	52390.1.316167.GGATACCA-TGGTATCC.filter-RNA.fastq.gz
GUPTO	189936	58496016	58225476	fukami857	113	NovaSeq S4	2x151	52363.4.312353.AGCGGAAT-ATTCCGCT.filter-RNA.fastq.gz
GUGYG	189938	26061520	25483360	fukami859	114	NovaSeq S4	2x151	52360.4.311923.TAGTGACC-GGTCACTA.filter-RNA.fastq.gz
GUNHA	189939	27306698	27008352	fukami860	115	NovaSeq S4	2x151	52363.4.312353.GAAGTACC-GGTACTTC.filter-RNA.fastq.gz
GUWZA	189940	35990410	35677558	fukami861	116	NovaSeq S4	2x151	52390.2.316305.ACCGTAGT-ACTACGGT.filter-RNA.fastq.gz
GUWYY	189941	37240034	37074356	fukami862	117	NovaSeq S4	2x151	52390.2.316305.TTGGACGT-ACGTCCAA.filter-RNA.fastq.gz
GUPTH	189942	45401852	45196670	fukami863	118	NovaSeq S4	2x151	52363.4.312353.AAGGCTGA-TCAGCCTT.filter-RNA.fastq.gz
GUPTS	189943	44639576	44326038	fukami864	119	NovaSeq S4	2x151	52363.4.312353.TTGCCACT-AGTGGCAA.filter-RNA.fastq.gz
GUNNU	189944	24781186	24429882	fukami865	120	NovaSeq S4	2x151	52363.4.312353.CGTTGAGT-ACTCAACG.filter-RNA.fastq.gz
GUNHB	189945	26000566	25595730	fukami866	121	NovaSeq S4	2x151	52363.4.312353.CGAACTGT-ACAGTTCG.filter-RNA.fastq.gz
GUYCS	189946	32493408	32049088	fukami867	122	NovaSeq S4	2x151	52370.3.313929.GGATTCGT-ACGAATCC.filter-RNA.fastq.gz
GUNUU	189947	31593912	31278654	fukami868	123	NovaSeq S4	2x151	52365.1.312552.ACTGCTAG-CTAGCAGT.filter-RNA.fastq.gz
GUUTS	189948	33854686	33052454	fukami869	124	NovaSeq S4	2x151	52390.1.316167.GTTCGGTT-AACCGAAC.filter-RNA.fastq.gz
GUUYC	189949	32593420	31269238	fukami870	125	NovaSeq S4	2x151	52390.1.316167.AGAAGCGT-ACGCTTCT.filter-RNA.fastq.gz
GUPSH	189950	37148848	36692154	fukami871	126	NovaSeq S4	2x151	52363.4.312353.CTCCTAGA-TCTAGGAG.filter-RNA.fastq.gz
GUUTC	189951	68491100	67575306	fukami872	127	NovaSeq S4	2x151	52390.1.316167.CCAGTGTT-AACACTGG.filter-RNA.fastq.gz
GUGXH	189952	41200102	40499084	fukami737	128	NovaSeq S4	2x151	52360.4.311923.AGCAAGCA-TGCTTGCT.filter-RNA.fastq.gz
GUGUT	189953	53987362	53328700	fukami738	129	NovaSeq S4	2x151	52360.4.311923.TGTGCGTT-AACGCACA.filter-RNA.fastq.gz
GUNAT	189954	34260308	33763768	fukami739	130	NovaSeq S4	2x151	52363.4.312353.CGGTTGTT-AACAACCG.filter-RNA.fastq.gz
GUGXZ	189955	33769536	33307712	fukami740	131	NovaSeq S4	2x151	52360.4.311923.GCCATAAC-GTTATGGC.filter-RNA.fastq.gz
GUYNU	189956	32459676	31957250	fukami741	132	NovaSeq S4	2x151	52370.3.313929.CATCGTGA-TCACGATG.filter-RNA.fastq.gz
GUYNO	189957	29384852	29194110	fukami742	133	NovaSeq S4	2x151	52370.3.313929.TGCTTCCA-TGGAAGCA.filter-RNA.fastq.gz
GUGZA	189958	23275638	23060648	fukami743	134	NovaSeq S4	2x151	52360.4.311923.TATTCGCC-GGCGAATA.filter-RNA.fastq.gz
GUGTT	189959	46658700	45997902	fukami744	135	NovaSeq S4	2x151	52360.4.311923.ATAGCGGT-ACCGCTAT.filter-RNA.fastq.gz
GUGZZ	189960	21126262	20666314	fukami745	136	NovaSeq S4	2x151	52360.4.311923.CTATCGCA-TGCGATAG.filter-RNA.fastq.gz
GUGWT	189961	31844288	31602950	fukami746	137	NovaSeq S4	2x151	52360.4.311923.TGACTGAC-GTCAGTCA.filter-RNA.fastq.gz
GUGWW	189962	29495668	28768498	fukami747	138	NovaSeq S4	2x151	52360.4.311923.ACGATGAC-GTCATCGT.filter-RNA.fastq.gz
GUGYB	189963	22248636	21785888	fukami748	139	NovaSeq S4	2x151	52360.4.311923.GAAGTACC-GGTACTTC.filter-RNA.fastq.gz
GUGUN	189965	24642432	24280658	fukami750	140	NovaSeq S4	2x151	52360.4.311923.GTTCGGTT-AACCGAAC.filter-RNA.fastq.gz
GUGUP	189966	24603356	23979618	fukami751	141	NovaSeq S4	2x151	52360.4.311923.CGTAGGTT-AACCTACG.filter-RNA.fastq.gz
GUUTP	189968	32431812	31475222	fukami713	142	NovaSeq S4	2x151	52390.1.316167.ACGGAACA-TGTTCCGT.filter-RNA.fastq.gz
GUUXP	189969	30970518	30415740	fukami714	143	NovaSeq S4	2x151	52390.1.316167.TGGCATGT-ACATGCCA.filter-RNA.fastq.gz
GUUWN	189970	49882424	48623214	fukami715	144	NovaSeq S4	2x151	52390.1.316167.AGAATGCC-GGCATTCT.filter-RNA.fastq.gz
GUUZX	189971	36645898	35707002	fukami716	145	NovaSeq S4	2x151	52390.1.316167.AGCTCCTA-TAGGAGCT.filter-RNA.fastq.gz
GUUTX	189972	54137944	50536936	fukami717	146	NovaSeq S4	2x151	52390.1.316167.TGTGCGTT-AACGCACA.filter-RNA.fastq.gz
GUUWA	189973	48326120	47069038	fukami718	147	NovaSeq S4	2x151	52390.1.316167.TACGCCTT-AAGGCGTA.filter-RNA.fastq.gz
GUOPH	189974	30068446	29683312	fukami719	148	NovaSeq S4	2x151	52363.3.312215.CATACCAC-GTGGTATG.filter-RNA.fastq.gz
GUONA	189975	34833326	34380092	fukami720	149	NovaSeq S4	2x151	52363.3.312215.GTAACGAC-GTCGTTAC.filter-RNA.fastq.gz
GUNBW	189976	25721338	25455444	fukami721	150	NovaSeq S4	2x151	52363.4.312353.CGCTTAAC-GTTAAGCG.filter-RNA.fastq.gz
GUYHT	189977	42486360	41501296	fukami722	151	NovaSeq S4	2x151	52370.3.313929.TAGCCGAA-TTCGGCTA.filter-RNA.fastq.gz
GUOSC	189978	40833164	40487748	fukami723	152	NovaSeq S4	2x151	52363.3.312215.TTGGACGT-ACGTCCAA.filter-RNA.fastq.gz
GUOSB	189979	26124914	25669540	fukami724	153	NovaSeq S4	2x151	52363.3.312215.TTGAGGCA-TGCCTCAA.filter-RNA.fastq.gz
GUNCO	189980	28001394	27389582	fukami725	154	NovaSeq S4	2x151	52363.4.312353.CAATCGAC-GTCGATTG.filter-RNA.fastq.gz
GUGXG	189981	33509578	33058744	fukami726	155	NovaSeq S4	2x151	52360.4.311923.GCTGGATT-AATCCAGC.filter-RNA.fastq.gz
GUNBX	189982	30714244	29953716	fukami727	156	NovaSeq S4	2x151	52363.4.312353.TCCGAGTT-AACTCGGA.filter-RNA.fastq.gz
GUNBO	189983	26479414	25733896	fukami728	157	NovaSeq S4	2x151	52363.4.312353.CGTAGGTT-AACCTACG.filter-RNA.fastq.gz
GUNCH	189984	22688988	22377500	fukami729	158	NovaSeq S4	2x151	52363.4.312353.ATTGAGCC-GGCTCAAT.filter-RNA.fastq.gz
GUYGS	189985	32803488	32393296	fukami730	159	NovaSeq S4	2x151	52370.3.313929.GCTTCTTG-CAAGAAGC.filter-RNA.fastq.gz
GUGWZ	189986	48654092	48194630	fukami731	160	NovaSeq S4	2x151	52360.4.311923.AGAGCCTT-AAGGCTCT.filter-RNA.fastq.gz
GUNBU	189987	33311954	32492268	fukami732	161	NovaSeq S4	2x151	52363.4.312353.GCTACGTT-AACGTAGC.filter-RNA.fastq.gz
GUYNN	189988	32384216	31793188	fukami733	162	NovaSeq S4	2x151	52370.3.313929.ACGACTTG-CAAGTCGT.filter-RNA.fastq.gz
GUNCN	189989	38446112	38032606	fukami734	163	NovaSeq S4	2x151	52363.4.312353.GTGAGCTT-AAGCTCAC.filter-RNA.fastq.gz
GUYOP	189990	29675260	29418098	fukami735	164	NovaSeq S4	2x151	52370.3.313929.TCTGAGAG-CTCTCAGA.filter-RNA.fastq.gz
GUYNX	189991	31804162	31246408	fukami736	165	NovaSeq S4	2x151	52370.3.313929.AGAGTAGC-GCTACTCT.filter-RNA.fastq.gz
GUPPO	189992	41361452	41130368	fukami873	166	NovaSeq S4	2x151	52363.4.312353.CTTCGTTC-GAACGAAG.filter-RNA.fastq.gz
GUUYG	189993	27719560	27367490	fukami874	167	NovaSeq S4	2x151	52390.1.316167.TATTCGCC-GGCGAATA.filter-RNA.fastq.gz
GUNXC	189994	26633138	25508284	fukami875	168	NovaSeq S4	2x151	52365.1.312552.GAGCAGTA-TACTGCTC.filter-RNA.fastq.gz
GUYCT	189995	33208444	31128100	fukami876	169	NovaSeq S4	2x151	52370.3.313929.ACTCAGAC-GTCTGAGT.filter-RNA.fastq.gz
GUPSN	189996	34635202	34471024	fukami877	170	NovaSeq S4	2x151	52363.4.312353.TCTGAGAG-CTCTCAGA.filter-RNA.fastq.gz
GUPPY	189997	43968856	43746642	fukami878	171	NovaSeq S4	2x151	52363.4.312353.ACTGCTAG-CTAGCAGT.filter-RNA.fastq.gz
GUUWZ	189998	62113570	60295038	fukami879	172	NovaSeq S4	2x151	52390.1.316167.ACCTCTGT-ACAGAGGT.filter-RNA.fastq.gz
GUPST	189999	41786768	41274234	fukami880	173	NovaSeq S4	2x151	52363.4.312353.GTGTTCCT-AGGAACAC.filter-RNA.fastq.gz
GUUUC	190015	30369328	29535142	fukami15	174	NovaSeq S4	2x151	52390.1.316167.AGTCTCAC-GTGAGACT.filter-RNA.fastq.gz
GUYHP	190017	35566616	35271318	fukami17	175	NovaSeq S4	2x151	52370.3.313929.GGACCTAT-ATAGGTCC.filter-RNA.fastq.gz
GUYHN	190018	30259498	30068814	fukami18	176	NovaSeq S4	2x151	52370.3.313929.TCAAGGAC-GTCCTTGA.filter-RNA.fastq.gz
GUSCS	190019	25424720	25299868	fukami19	177	NovaSeq S4	2x151	52365.1.312552.GACATTCC-GGAATGTC.filter-RNA.fastq.gz
GUYPS	190020	39774704	39391172	fukami20	178	NovaSeq S4	2x151	52370.3.313929.AGCGGAAT-ATTCCGCT.filter-RNA.fastq.gz
GUYPX	190021	32559464	32297176	fukami21	179	NovaSeq S4	2x151	52370.3.313929.GATTGCTC-GAGCAATC.filter-RNA.fastq.gz
GUWTS	190022	37695340	37421776	fukami22	180	NovaSeq S4	2x151	52390.2.316305.TGTACACC-GGTGTACA.filter-RNA.fastq.gz
GUSCB	190023	24057022	23926018	fukami23	181	NovaSeq S4	2x151	52365.1.312552.GCGATAGT-ACTATCGC.filter-RNA.fastq.gz
GUPPB	190024	46594370	46060638	fukami24	182	NovaSeq S4	2x151	52363.4.312353.CTGAAGCT-AGCTTCAG.filter-RNA.fastq.gz
GUSBC	190025	43544814	42394070	fukami66	183	NovaSeq S4	2x151	52365.1.312552.TAACCGGT-ACCGGTTA.filter-RNA.fastq.gz
GUOTO	190026	28231258	27940454	fukami67	184	NovaSeq S4	2x151	52363.3.312215.AGCTCCTA-TAGGAGCT.filter-RNA.fastq.gz
GUOSX	190027	46994944	46315506	fukami68	185	NovaSeq S4	2x151	52363.3.312215.AGTGCAGT-ACTGCACT.filter-RNA.fastq.gz
GUSBT	190028	32514510	31906454	fukami69	186	NovaSeq S4	2x151	52365.1.312552.AACGGTCA-TGACCGTT.filter-RNA.fastq.gz
GUYHA	190029	32071936	29740576	fukami70	187	NovaSeq S4	2x151	52370.3.313929.AATACGCG-CGCGTATT.filter-RNA.fastq.gz
GUOTC	190030	40121090	39799502	fukami71	188	NovaSeq S4	2x151	52363.3.312215.ATGCACGA-TCGTGCAT.filter-RNA.fastq.gz
GUNTW	190031	30800058	30394806	fukami72	189	NovaSeq S4	2x151	52365.1.312552.GTTGTAGC-GCTACAAC.filter-RNA.fastq.gz
GUSCZ	190032	29466128	29042734	fukami73	190	NovaSeq S4	2x151	52365.1.312552.TGTCCAGA-TCTGGACA.filter-RNA.fastq.gz
GUWUC	190033	41405536	41002654	fukami74	191	NovaSeq S4	2x151	52390.2.316305.TGTGCGTT-AACGCACA.filter-RNA.fastq.gz
GUSAO	190034	27537882	27078882	fukami75	192	NovaSeq S4	2x151	52365.1.312552.GCCATAAC-GTTATGGC.filter-RNA.fastq.gz
GUSBB	190036	47869516	46916594	fukami77	193	NovaSeq S4	2x151	52365.1.312552.CCAAGCAA-TTGCTTGG.filter-RNA.fastq.gz
GUNOG	190037	23625404	23083678	fukami78	194	NovaSeq S4	2x151	52363.4.312353.GCATGTCT-AGACATGC.filter-RNA.fastq.gz
GUOSO	190038	41797152	41522722	fukami79	195	NovaSeq S4	2x151	52363.3.312215.GCGATAGT-ACTATCGC.filter-RNA.fastq.gz
GUNTT	190039	36928030	36606860	fukami80	196	NovaSeq S4	2x151	52365.1.312552.TTGCGAAG-CTTCGCAA.filter-RNA.fastq.gz
GUOTH	190048	38401256	38045014	fukami89	197	NovaSeq S4	2x151	52363.3.312215.TGTCCAGA-TCTGGACA.filter-RNA.fastq.gz
GUYPY	190049	30708486	29765664	fukami90	198	NovaSeq S4	2x151	52370.3.313929.AGAACGAG-CTCGTTCT.filter-RNA.fastq.gz
GUWTZ	190050	28420874	27956538	fukami91	199	NovaSeq S4	2x151	52390.2.316305.ACAGCAAC-GTTGCTGT.filter-RNA.fastq.gz
GUNGN	190051	24181948	23849100	fukami92	200	NovaSeq S4	2x151	52363.4.312353.TCGGTTAC-GTAACCGA.filter-RNA.fastq.gz
GUGZS	190052	17820010	17019562	fukami93	201	NovaSeq S4	2x151	52360.4.311923.GTGAATCC-GGATTCAC.filter-RNA.fastq.gz
GUOSW	190053	41966180	41531500	fukami94	202	NovaSeq S4	2x151	52363.3.312215.CTATCGCA-TGCGATAG.filter-RNA.fastq.gz
GUPPH	190055	34831522	34662246	fukami96	203	NovaSeq S4	2x151	52363.4.312353.TGCTTCCA-TGGAAGCA.filter-RNA.fastq.gz
GUNST	190063	39584644	39020798	fukami104	204	NovaSeq S4	2x151	52365.1.312552.ACGACAGA-TCTGTCGT.filter-RNA.fastq.gz
GUHAB	190064	36041722	35709618	fukami105	205	NovaSeq S4	2x151	52360.4.311923.GACATTCC-GGAATGTC.filter-RNA.fastq.gz
GUNPU	190065	45559346	45070716	fukami106	206	NovaSeq S4	2x151	52365.1.312552.CAAGTGCA-TGCACTTG.filter-RNA.fastq.gz
GUHAA	190066	31788052	31132198	fukami107	207	NovaSeq S4	2x151	52360.4.311923.AGTGCAGT-ACTGCACT.filter-RNA.fastq.gz
GUSCO	190067	32191678	31652746	fukami108	208	NovaSeq S4	2x151	52365.1.312552.CTATCGCA-TGCGATAG.filter-RNA.fastq.gz
GUSBO	190068	28348554	27456420	fukami109	209	NovaSeq S4	2x151	52365.1.312552.AGAAGCGT-ACGCTTCT.filter-RNA.fastq.gz
GUSCH	190069	31877746	31265532	fukami110	210	NovaSeq S4	2x151	52365.1.312552.TCACAGCA-TGCTGTGA.filter-RNA.fastq.gz
GUSCA	190070	25018526	24405842	fukami111	211	NovaSeq S4	2x151	52365.1.312552.GTGAATCC-GGATTCAC.filter-RNA.fastq.gz
GUNPB	190071	32493930	32141754	fukami112	212	NovaSeq S4	2x151	52365.1.312552.TTCAGGAG-CTCCTGAA.filter-RNA.fastq.gz
GUOTN	190072	36176414	35214028	fukami113	213	NovaSeq S4	2x151	52363.3.312215.TAGCGTCT-AGACGCTA.filter-RNA.fastq.gz
GUNTN	190073	28728482	28503100	fukami114	214	NovaSeq S4	2x151	52365.1.312552.GCTATCCT-AGGATAGC.filter-RNA.fastq.gz
GUOSY	190074	34491644	33950970	fukami115	215	NovaSeq S4	2x151	52363.3.312215.GACATTCC-GGAATGTC.filter-RNA.fastq.gz
GUNSB	190075	37665070	37148078	fukami116	216	NovaSeq S4	2x151	52365.1.312552.TTCTCTCG-CGAGAGAA.filter-RNA.fastq.gz
GUNSN	190076	34137890	33655250	fukami117	217	NovaSeq S4	2x151	52365.1.312552.ACTCCATC-GATGGAGT.filter-RNA.fastq.gz
GUNOH	190077	24314738	22414486	fukami118	218	NovaSeq S4	2x151	52363.4.312353.ATGCACGA-TCGTGCAT.filter-RNA.fastq.gz
GUNPY	190078	27242824	26863364	fukami119	219	NovaSeq S4	2x151	52365.1.312552.CGTGATCA-TGATCACG.filter-RNA.fastq.gz
GUWTB	190079	41030872	40545728	fukami120	220	NovaSeq S4	2x151	52390.2.316305.GAGCTCAA-TTGAGCTC.filter-RNA.fastq.gz
GUNCY	190081	39854454	39059986	fukami122	221	NovaSeq S4	2x151	52363.4.312353.AGAGCCTT-AAGGCTCT.filter-RNA.fastq.gz
GUWTX	190082	36052804	35526834	fukami123	222	NovaSeq S4	2x151	52390.2.316305.ACGGAACA-TGTTCCGT.filter-RNA.fastq.gz
GUOSZ	190083	30455832	29981900	fukami124	223	NovaSeq S4	2x151	52363.3.312215.ACACCAGT-ACTGGTGT.filter-RNA.fastq.gz
GUNSU	190084	32648498	32120620	fukami125	224	NovaSeq S4	2x151	52365.1.312552.AATACGCG-CGCGTATT.filter-RNA.fastq.gz
GUNSW	190085	34485656	34043104	fukami126	225	NovaSeq S4	2x151	52365.1.312552.GTCTGATC-GATCAGAC.filter-RNA.fastq.gz
GUSBA	190086	29632558	29271408	fukami127	226	NovaSeq S4	2x151	52365.1.312552.TTGTCGGT-ACCGACAA.filter-RNA.fastq.gz
GUNUB	190087	29544716	28932646	fukami128	227	NovaSeq S4	2x151	52365.1.312552.TGCTTCCA-TGGAAGCA.filter-RNA.fastq.gz
GUNSS	190095	37705580	37226996	fukami8	228	NovaSeq S4	2x151	52365.1.312552.GGCGTTAT-ATAACGCC.filter-RNA.fastq.gz
GUYGN	190096	33459628	32701554	fukami137	229	NovaSeq S4	2x151	52370.3.313929.ACTCTCGA-TCGAGAGT.filter-RNA.fastq.gz
GUYHC	190097	28236930	27471824	fukami138	230	NovaSeq S4	2x151	52370.3.313929.CGACGTTA-TAACGTCG.filter-RNA.fastq.gz
GUNGG	190098	29000118	28405152	fukami139	231	NovaSeq S4	2x151	52363.4.312353.AGCAAGCA-TGCTTGCT.filter-RNA.fastq.gz
GUOSS	190099	40745194	40126592	fukami140	232	NovaSeq S4	2x151	52363.3.312215.CGTTGAGT-ACTCAACG.filter-RNA.fastq.gz
GUNTH	190100	37586436	37130378	fukami141	233	NovaSeq S4	2x151	52365.1.312552.TAGCCGAA-TTCGGCTA.filter-RNA.fastq.gz
GUNTC	190101	45299470	44824636	fukami142	234	NovaSeq S4	2x151	52365.1.312552.GGACCTAT-ATAGGTCC.filter-RNA.fastq.gz
GUOST	190102	34271702	33897712	fukami143	235	NovaSeq S4	2x151	52363.3.312215.TCACAGCA-TGCTGTGA.filter-RNA.fastq.gz
GUOSU	190103	31263378	30607034	fukami144	236	NovaSeq S4	2x151	52363.3.312215.GATCGAGT-ACTCGATC.filter-RNA.fastq.gz
GUYHZ	190104	32321832	32070456	fukami145	237	NovaSeq S4	2x151	52370.3.313929.TTGCGAAG-CTTCGCAA.filter-RNA.fastq.gz
GUYGY	190105	37840360	37544688	fukami146	238	NovaSeq S4	2x151	52370.3.313929.GGCGTTAT-ATAACGCC.filter-RNA.fastq.gz
GUYCU	190106	25863542	25734962	fukami147	239	NovaSeq S4	2x151	52370.3.313929.ATGTAGCG-CGCTACAT.filter-RNA.fastq.gz
GUSCC	190107	25217724	24962578	fukami148	240	NovaSeq S4	2x151	52365.1.312552.CTCGATAC-GTATCGAG.filter-RNA.fastq.gz
GUNGA	190108	33537706	33060228	fukami149	241	NovaSeq S4	2x151	52363.4.312353.GAGGACTT-AAGTCCTC.filter-RNA.fastq.gz
GUSAS	190109	28029376	27568910	fukami150	242	NovaSeq S4	2x151	52365.1.312552.GAAGTACC-GGTACTTC.filter-RNA.fastq.gz
GUOSP	190110	43313282	42909052	fukami151	243	NovaSeq S4	2x151	52363.3.312215.CTCGATAC-GTATCGAG.filter-RNA.fastq.gz
GUYGP	190111	30778796	30561836	fukami152	244	NovaSeq S4	2x151	52370.3.313929.ATACGACC-GGTCGTAT.filter-RNA.fastq.gz
GUGUS	190112	26784140	26532368	fukami161	245	NovaSeq S4	2x151	52360.4.311923.TCATCACC-GGTGATGA.filter-RNA.fastq.gz
GUGZH	190113	30724172	29831118	fukami162	246	NovaSeq S4	2x151	52360.4.311923.TTGAGGCA-TGCCTCAA.filter-RNA.fastq.gz
GUGZX	190114	23320906	22983354	fukami163	247	NovaSeq S4	2x151	52360.4.311923.TCACAGCA-TGCTGTGA.filter-RNA.fastq.gz
GUNSG	190115	33799310	33335812	fukami164	248	NovaSeq S4	2x151	52365.1.312552.GCTTCTTG-CAAGAAGC.filter-RNA.fastq.gz
GUNTS	190116	45068552	44583354	fukami165	249	NovaSeq S4	2x151	52365.1.312552.CTGCACTT-AAGTGCAG.filter-RNA.fastq.gz
GUWUO	190117	40643018	40067626	fukami166	250	NovaSeq S4	2x151	52390.2.316305.TCCGAGTT-AACTCGGA.filter-RNA.fastq.gz
GUNCT	190118	34799108	34313624	fukami167	251	NovaSeq S4	2x151	52363.4.312353.GTCTCCTT-AAGGAGAC.filter-RNA.fastq.gz
GUHAH	190119	27127106	26488310	fukami168	252	NovaSeq S4	2x151	52360.4.311923.GCATGTCT-AGACATGC.filter-RNA.fastq.gz
GUNSC	190120	32411046	31959962	fukami169	253	NovaSeq S4	2x151	52365.1.312552.ATACGACC-GGTCGTAT.filter-RNA.fastq.gz
GUGZT	190122	35617184	35229032	fukami171	254	NovaSeq S4	2x151	52360.4.311923.GCGATAGT-ACTATCGC.filter-RNA.fastq.gz
GUNSX	190123	34159866	33931318	fukami172	255	NovaSeq S4	2x151	52365.1.312552.CGACGTTA-TAACGTCG.filter-RNA.fastq.gz
GUSCY	190124	29857954	29496950	fukami173	256	NovaSeq S4	2x151	52365.1.312552.CAAGGTCT-AGACCTTG.filter-RNA.fastq.gz
GUSCN	190125	33509806	33100918	fukami174	257	NovaSeq S4	2x151	52365.1.312552.GATCGAGT-ACTCGATC.filter-RNA.fastq.gz
GUSBN	190126	27547460	26969108	fukami175	258	NovaSeq S4	2x151	52365.1.312552.AAGAGCCA-TGGCTCTT.filter-RNA.fastq.gz
GUNPW	190127	31317856	30791214	fukami176	259	NovaSeq S4	2x151	52365.1.312552.GATAGGCT-AGCCTATC.filter-RNA.fastq.gz
GUYGT	190128	29801572	29646674	fukami177	260	NovaSeq S4	2x151	52370.3.313929.TTAGGTCG-CGACCTAA.filter-RNA.fastq.gz
GUNCZ	190129	25933968	25670768	fukami178	261	NovaSeq S4	2x151	52363.4.312353.TCTCTTCC-GGAAGAGA.filter-RNA.fastq.gz
GUGUX	190130	36631964	36420150	fukami179	262	NovaSeq S4	2x151	52360.4.311923.CGCTTAAC-GTTAAGCG.filter-RNA.fastq.gz
GUNGO	190131	28354414	28017978	fukami180	263	NovaSeq S4	2x151	52363.4.312353.CACGTTGT-ACAACGTG.filter-RNA.fastq.gz
GUNTB	190132	29448022	28926078	fukami181	264	NovaSeq S4	2x151	52365.1.312552.CCTTGATC-GATCAAGG.filter-RNA.fastq.gz
GUSAP	190133	32480818	32076824	fukami182	265	NovaSeq S4	2x151	52365.1.312552.ATGCCTGT-ACAGGCAT.filter-RNA.fastq.gz
GUPOZ	190134	37307828	36993672	fukami183	266	NovaSeq S4	2x151	52363.4.312353.GTTGTAGC-GCTACAAC.filter-RNA.fastq.gz
GUNSY	190135	27824374	27581044	fukami184	267	NovaSeq S4	2x151	52365.1.312552.GATTACCG-CGGTAATC.filter-RNA.fastq.gz
GUHAC	190136	32592122	31727208	fukami185	268	NovaSeq S4	2x151	52360.4.311923.ACACCAGT-ACTGGTGT.filter-RNA.fastq.gz
GUNON	190137	27759304	27331686	fukami186	269	NovaSeq S4	2x151	52363.4.312353.CAAGGTCT-AGACCTTG.filter-RNA.fastq.gz
GUNGB	190138	29392954	28866254	fukami187	270	NovaSeq S4	2x151	52363.4.312353.AGAATGCC-GGCATTCT.filter-RNA.fastq.gz
GUNPG	190139	31345716	31065616	fukami188	271	NovaSeq S4	2x151	52365.1.312552.GGATTCGT-ACGAATCC.filter-RNA.fastq.gz
GUSAZ	190140	30487450	29899860	fukami189	272	NovaSeq S4	2x151	52365.1.312552.CATACCAC-GTGGTATG.filter-RNA.fastq.gz
GUOTA	190141	36269936	35967338	fukami190	273	NovaSeq S4	2x151	52363.3.312215.TGTGGTAC-GTACCACA.filter-RNA.fastq.gz
GUWTT	190143	33786748	33623932	fukami192	274	NovaSeq S4	2x151	52390.2.316305.TCGCTGTT-AACAGCGA.filter-RNA.fastq.gz
GUGZP	190144	23769922	23369918	fukami193	275	NovaSeq S4	2x151	52360.4.311923.ACCGTAGT-ACTACGGT.filter-RNA.fastq.gz
GUGZO	190145	22828086	22011310	fukami194	276	NovaSeq S4	2x151	52360.4.311923.CACCTTAC-GTAAGGTG.filter-RNA.fastq.gz
GUYHY	190146	44813468	44414842	fukami195	277	NovaSeq S4	2x151	52370.3.313929.CTGCACTT-AAGTGCAG.filter-RNA.fastq.gz
GUHAG	190147	26593120	26248454	fukami196	278	NovaSeq S4	2x151	52360.4.311923.TGTGGTAC-GTACCACA.filter-RNA.fastq.gz
GUWTU	190148	36445838	36014128	fukami197	279	NovaSeq S4	2x151	52390.2.316305.AGCTAACC-GGTTAGCT.filter-RNA.fastq.gz
GUPPC	190149	41609616	41308560	fukami198	280	NovaSeq S4	2x151	52363.4.312353.TCCTTAGC-GCTAAGGA.filter-RNA.fastq.gz
GUYOY	190150	35226164	34082036	fukami199	281	NovaSeq S4	2x151	52370.3.313929.TGATGTCC-GGACATCA.filter-RNA.fastq.gz
GUUXG	190151	35407672	34077342	fukami200	282	NovaSeq S4	2x151	52390.1.316167.ATGCCTGT-ACAGGCAT.filter-RNA.fastq.gz
GUWTW	190152	39128346	38845630	fukami201	283	NovaSeq S4	2x151	52390.2.316305.GGACTGTT-AACAGTCC.filter-RNA.fastq.gz
GUGWB	190153	41013190	40338476	fukami202	284	NovaSeq S4	2x151	52360.4.311923.TTCGTACC-GGTACGAA.filter-RNA.fastq.gz
GUYCY	190154	31590338	30198598	fukami203	285	NovaSeq S4	2x151	52370.3.313929.CGTACGAA-TTCGTACG.filter-RNA.fastq.gz
GUYCX	190155	32289984	31931758	fukami204	286	NovaSeq S4	2x151	52370.3.313929.GACTTAGG-CCTAAGTC.filter-RNA.fastq.gz
GUYCA	190156	39712296	39426514	fukami205	287	NovaSeq S4	2x151	52370.3.313929.GTCCACAT-ATGTGGAC.filter-RNA.fastq.gz
GUNTU	190157	32465036	32041926	fukami206	288	NovaSeq S4	2x151	52365.1.312552.ACATAGGC-GCCTATGT.filter-RNA.fastq.gz
GUSAT	190158	28096898	27767472	fukami207	289	NovaSeq S4	2x151	52365.1.312552.CGAACTGT-ACAGTTCG.filter-RNA.fastq.gz
GUSCG	190159	30786436	30233208	fukami208	290	NovaSeq S4	2x151	52365.1.312552.CGTTGAGT-ACTCAACG.filter-RNA.fastq.gz
GUYCW	190161	30321488	29748804	fukami210	291	NovaSeq S4	2x151	52370.3.313929.GCAAGATC-GATCTTGC.filter-RNA.fastq.gz
GUHAO	190162	30870178	30126950	fukami211	292	NovaSeq S4	2x151	52360.4.311923.CAAGGTCT-AGACCTTG.filter-RNA.fastq.gz
GUNCX	190163	27161738	26845054	fukami212	293	NovaSeq S4	2x151	52363.4.312353.AGTAGTCC-GGACTACT.filter-RNA.fastq.gz
GUWUB	190164	38798962	38509728	fukami213	294	NovaSeq S4	2x151	52390.2.316305.TCATCACC-GGTGATGA.filter-RNA.fastq.gz
GUWTO	190167	37648452	37039800	fukami216	295	NovaSeq S4	2x151	52390.2.316305.CTGACACA-TGTGTCAG.filter-RNA.fastq.gz
GUHAP	190168	28679270	28319558	fukami217	296	NovaSeq S4	2x151	52360.4.311923.TGTCCAGA-TCTGGACA.filter-RNA.fastq.gz
GUOTG	190169	44211180	43495926	fukami218	297	NovaSeq S4	2x151	52363.3.312215.CAAGGTCT-AGACCTTG.filter-RNA.fastq.gz
GUNGH	190170	29694262	29349596	fukami219	298	NovaSeq S4	2x151	52363.4.312353.CGACCATT-AATGGTCG.filter-RNA.fastq.gz
GUNGC	190171	33824756	33477480	fukami220	299	NovaSeq S4	2x151	52363.4.312353.GCTGGATT-AATCCAGC.filter-RNA.fastq.gz
GUWTG	190172	49630678	49240448	fukami221	300	NovaSeq S4	2x151	52390.2.316305.CGGTTGTT-AACAACCG.filter-RNA.fastq.gz
GUHAT	190173	21560472	21366576	fukami222	301	NovaSeq S4	2x151	52360.4.311923.AGCTCCTA-TAGGAGCT.filter-RNA.fastq.gz
GUSCU	190174	28495398	28077768	fukami223	302	NovaSeq S4	2x151	52365.1.312552.TGTGGTAC-GTACCACA.filter-RNA.fastq.gz
GUSBP	190175	34805508	34162502	fukami224	303	NovaSeq S4	2x151	52365.1.312552.TATTCGCC-GGCGAATA.filter-RNA.fastq.gz
GUSBS	190176	29024786	28549830	fukami225	304	NovaSeq S4	2x151	52365.1.312552.TGTACCGT-ACGGTACA.filter-RNA.fastq.gz
GUSBW	190177	38880472	38373246	fukami226	305	NovaSeq S4	2x151	52365.1.312552.TTGAGGCA-TGCCTCAA.filter-RNA.fastq.gz
GUSAY	190178	29064614	28574264	fukami227	306	NovaSeq S4	2x151	52365.1.312552.TGCTTGGT-ACCAAGCA.filter-RNA.fastq.gz
GUNPP	190179	36627966	36096302	fukami228	307	NovaSeq S4	2x151	52365.1.312552.GACTTAGG-CCTAAGTC.filter-RNA.fastq.gz
GUSAN	190180	41728682	41150974	fukami229	308	NovaSeq S4	2x151	52365.1.312552.CTTGCTGT-ACAGCAAG.filter-RNA.fastq.gz
GUWUP	190182	33267814	32975856	fukami231	309	NovaSeq S4	2x151	52390.2.316305.AGTCTCAC-GTGAGACT.filter-RNA.fastq.gz
GUNPC	190184	39318838	38706920	fukami233	310	NovaSeq S4	2x151	52365.1.312552.AATGCCTC-GAGGCATT.filter-RNA.fastq.gz
GUNPZ	190185	31641246	31288752	fukami234	311	NovaSeq S4	2x151	52365.1.312552.TACATCGG-CCGATGTA.filter-RNA.fastq.gz
GUNSA	190186	28676318	28127242	fukami235	312	NovaSeq S4	2x151	52365.1.312552.ACTCTCGA-TCGAGAGT.filter-RNA.fastq.gz
GUNGP	190187	25173424	24675104	fukami236	313	NovaSeq S4	2x151	52363.4.312353.GTTCAACC-GGTTGAAC.filter-RNA.fastq.gz
GUSBU	190188	27354858	26526912	fukami237	314	NovaSeq S4	2x151	52365.1.312552.CCATACGT-ACGTATGG.filter-RNA.fastq.gz
GUSCT	190189	27227242	26375788	fukami238	315	NovaSeq S4	2x151	52365.1.312552.ACACCAGT-ACTGGTGT.filter-RNA.fastq.gz
GUYOC	190191	33739310	33077326	fukami240	316	NovaSeq S4	2x151	52370.3.313929.GAAGAGGT-ACCTCTTC.filter-RNA.fastq.gz
GUNBG	190192	27239800	26664204	fukami241	317	NovaSeq S4	2x151	52363.4.312353.ACGGAACA-TGTTCCGT.filter-RNA.fastq.gz
GUOSA	190193	31990496	31736762	fukami242	318	NovaSeq S4	2x151	52363.3.312215.CCATACGT-ACGTATGG.filter-RNA.fastq.gz
GUGXO	190194	27263688	26815678	fukami243	319	NovaSeq S4	2x151	52360.4.311923.TCGGTTAC-GTAACCGA.filter-RNA.fastq.gz
GUOSN	190195	21789958	21538988	fukami244	320	NovaSeq S4	2x151	52363.3.312215.GTGAATCC-GGATTCAC.filter-RNA.fastq.gz
GUYHW	190196	33897044	33097194	fukami245	321	NovaSeq S4	2x151	52370.3.313929.CGCTAGTA-TACTAGCG.filter-RNA.fastq.gz
GUNUT	190197	34107082	33617234	fukami246	322	NovaSeq S4	2x151	52365.1.312552.TTGTGTGC-GCACACAA.filter-RNA.fastq.gz
GUYGB	190198	29662504	29001534	fukami247	323	NovaSeq S4	2x151	52370.3.313929.GATAGGCT-AGCCTATC.filter-RNA.fastq.gz
GUYNB	190199	31171632	30562858	fukami248	324	NovaSeq S4	2x151	52370.3.313929.GTTGTAGC-GCTACAAC.filter-RNA.fastq.gz
GUNBY	190200	27034720	26513968	fukami249	325	NovaSeq S4	2x151	52363.4.312353.AGTCTCAC-GTGAGACT.filter-RNA.fastq.gz
GUYGZ	190201	30473418	29751786	fukami250	326	NovaSeq S4	2x151	52370.3.313929.ACGACAGA-TCTGTCGT.filter-RNA.fastq.gz
GUYGW	190202	29395422	29077344	fukami251	327	NovaSeq S4	2x151	52370.3.313929.GTGCCATA-TATGGCAC.filter-RNA.fastq.gz
GUNBN	190203	23097044	22567316	fukami252	328	NovaSeq S4	2x151	52363.4.312353.ACAGCAAC-GTTGCTGT.filter-RNA.fastq.gz
GUNBS	190204	33549962	32846482	fukami253	329	NovaSeq S4	2x151	52363.4.312353.TGTGCGTT-AACGCACA.filter-RNA.fastq.gz
GUNAW	190205	29550210	29001646	fukami254	330	NovaSeq S4	2x151	52363.4.312353.GCCTTGTT-AACAAGGC.filter-RNA.fastq.gz
GUGYC	190206	33219854	32597848	fukami255	331	NovaSeq S4	2x151	52360.4.311923.CGAACTGT-ACAGTTCG.filter-RNA.fastq.gz
GUGUG	190207	40064308	39436774	fukami256	332	NovaSeq S4	2x151	52360.4.311923.GGACTGTT-AACAGTCC.filter-RNA.fastq.gz
GUOPY	190208	48098812	47556032	fukami257	333	NovaSeq S4	2x151	52363.3.312215.TGTACCGT-ACGGTACA.filter-RNA.fastq.gz
GUOSG	190209	37630040	37184330	fukami258	334	NovaSeq S4	2x151	52363.3.312215.CACCTTAC-GTAAGGTG.filter-RNA.fastq.gz
GUNBT	190210	26193754	25807138	fukami259	335	NovaSeq S4	2x151	52363.4.312353.ACCATCCA-TGGATGGT.filter-RNA.fastq.gz
GUNOX	190211	32931760	32287122	fukami260	336	NovaSeq S4	2x151	52365.1.312552.GCACTCAT-ATGAGTGC.filter-RNA.fastq.gz
GUYNZ	190212	28939002	28436178	fukami261	337	NovaSeq S4	2x151	52370.3.313929.TTGTGTGC-GCACACAA.filter-RNA.fastq.gz
GUYNG	190213	30907970	30151434	fukami262	338	NovaSeq S4	2x151	52370.3.313929.CTGAAGCT-AGCTTCAG.filter-RNA.fastq.gz
GUNAP	190214	34968000	34524672	fukami263	339	NovaSeq S4	2x151	52363.4.312353.GAGCTCAA-TTGAGCTC.filter-RNA.fastq.gz
GUGUZ	190215	44970598	44536704	fukami264	340	NovaSeq S4	2x151	52360.4.311923.AGTCTCAC-GTGAGACT.filter-RNA.fastq.gz
GUGXA	190217	26547082	26309046	fukami266	341	NovaSeq S4	2x151	52360.4.311923.TCTCTTCC-GGAAGAGA.filter-RNA.fastq.gz
GUOPW	190218	43343924	42677344	fukami267	342	NovaSeq S4	2x151	52363.3.312215.AGAAGCGT-ACGCTTCT.filter-RNA.fastq.gz
GUNHP	190220	28638112	28038412	fukami269	343	NovaSeq S4	2x151	52363.4.312353.TTGTCGGT-ACCGACAA.filter-RNA.fastq.gz
GUGUH	190221	35590148	34763772	fukami270	344	NovaSeq S4	2x151	52360.4.311923.ACGGAACA-TGTTCCGT.filter-RNA.fastq.gz
GUGYA	190222	33040170	32119760	fukami271	345	NovaSeq S4	2x151	52360.4.311923.ATGCCTGT-ACAGGCAT.filter-RNA.fastq.gz
GUGXB	190223	51383538	50879238	fukami272	346	NovaSeq S4	2x151	52360.4.311923.GAGGACTT-AAGTCCTC.filter-RNA.fastq.gz
GUNCA	190224	40500614	39759738	fukami273	347	NovaSeq S4	2x151	52363.4.312353.TTCGTACC-GGTACGAA.filter-RNA.fastq.gz
GUNTO	190226	30622336	30459544	fukami275	348	NovaSeq S4	2x151	52365.1.312552.CGCTAGTA-TACTAGCG.filter-RNA.fastq.gz
GUNCG	190227	27640666	27258114	fukami276	349	NovaSeq S4	2x151	52363.4.312353.GAACGCTT-AAGCGTTC.filter-RNA.fastq.gz
GUGZG	190228	32034888	31699182	fukami277	350	NovaSeq S4	2x151	52360.4.311923.CCATACGT-ACGTATGG.filter-RNA.fastq.gz
GUGTW	190229	25939070	25556468	fukami278	351	NovaSeq S4	2x151	52360.4.311923.TACCAACC-GGTTGGTA.filter-RNA.fastq.gz
GUNCU	190230	24986084	24633320	fukami279	352	NovaSeq S4	2x151	52363.4.312353.ACGATGAC-GTCATCGT.filter-RNA.fastq.gz
GUNGW	190231	27828968	27278264	fukami280	353	NovaSeq S4	2x151	52363.4.312353.TGGATCAC-GTGATCCA.filter-RNA.fastq.gz
GUGUO	190232	22576556	22309700	fukami281	354	NovaSeq S4	2x151	52360.4.311923.ACAGCAAC-GTTGCTGT.filter-RNA.fastq.gz
GUNXS	190233	35391230	34768828	fukami282	355	NovaSeq S4	2x151	52365.1.312552.AGAACGAG-CTCGTTCT.filter-RNA.fastq.gz
GUGWY	190234	28834110	28529194	fukami283	356	NovaSeq S4	2x151	52360.4.311923.AGTAGTCC-GGACTACT.filter-RNA.fastq.gz
GUYGA	190235	35757976	35403532	fukami284	357	NovaSeq S4	2x151	52370.3.313929.CAAGTGCA-TGCACTTG.filter-RNA.fastq.gz
GUGWG	190236	35042132	34382342	fukami285	358	NovaSeq S4	2x151	52360.4.311923.GTAACGAC-GTCGTTAC.filter-RNA.fastq.gz
GUGWH	190237	38383040	38113020	fukami286	359	NovaSeq S4	2x151	52360.4.311923.GAACGCTT-AAGCGTTC.filter-RNA.fastq.gz
GUNAU	190238	23852612	23391786	fukami287	360	NovaSeq S4	2x151	52363.4.312353.TACCAACC-GGTTGGTA.filter-RNA.fastq.gz
GUYOB	190239	29574428	29076876	fukami288	361	NovaSeq S4	2x151	52370.3.313929.GTCATCGA-TCGATGAC.filter-RNA.fastq.gz
GUYNW	190240	31115006	30473792	fukami297	362	NovaSeq S4	2x151	52370.3.313929.TCTCCGAT-ATCGGAGA.filter-RNA.fastq.gz
GUGWN	190241	26958404	26272658	fukami298	363	NovaSeq S4	2x151	52360.4.311923.ATTGAGCC-GGCTCAAT.filter-RNA.fastq.gz
GUGUY	190242	40232776	39283866	fukami299	364	NovaSeq S4	2x151	52360.4.311923.TCCGAGTT-AACTCGGA.filter-RNA.fastq.gz
GUYNY	190243	34163422	33704182	fukami300	365	NovaSeq S4	2x151	52370.3.313929.CAACACCT-AGGTGTTG.filter-RNA.fastq.gz
GUNOP	190244	27156260	26706076	fukami301	366	NovaSeq S4	2x151	52363.4.312353.TAGCGTCT-AGACGCTA.filter-RNA.fastq.gz
GUYOW	190245	38903578	37916918	fukami302	367	NovaSeq S4	2x151	52370.3.313929.GTGTTCCT-AGGAACAC.filter-RNA.fastq.gz
GUNBA	190246	31186422	30778300	fukami303	368	NovaSeq S4	2x151	52363.4.312353.TCGCTGTT-AACAGCGA.filter-RNA.fastq.gz
GUYNS	190247	31209348	30878194	fukami304	369	NovaSeq S4	2x151	52370.3.313929.CTTCGTTC-GAACGAAG.filter-RNA.fastq.gz
GUYOU	190248	35684276	35039476	fukami305	370	NovaSeq S4	2x151	52370.3.313929.CACAAGTC-GACTTGTG.filter-RNA.fastq.gz
GUGUU	190249	26591346	26065274	fukami306	371	NovaSeq S4	2x151	52360.4.311923.ACCATCCA-TGGATGGT.filter-RNA.fastq.gz
GUYGC	190251	33171756	32987042	fukami308	372	NovaSeq S4	2x151	52370.3.313929.CTCTACTC-GAGTAGAG.filter-RNA.fastq.gz
GUGXW	190253	21583782	20657168	fukami310	373	NovaSeq S4	2x151	52360.4.311923.ACCTCTGT-ACAGAGGT.filter-RNA.fastq.gz
GUNAX	190254	23732142	21584324	fukami311	374	NovaSeq S4	2x151	52363.4.312353.CTGACACA-TGTGTCAG.filter-RNA.fastq.gz
GUYHX	190255	36116676	35883208	fukami312	375	NovaSeq S4	2x151	52370.3.313929.TCCGTGAA-TTCACGGA.filter-RNA.fastq.gz
GUGYS	190256	28900276	28521714	fukami313	376	NovaSeq S4	2x151	52360.4.311923.TTGTCGGT-ACCGACAA.filter-RNA.fastq.gz
GUGYU	190257	26355706	25653526	fukami314	377	NovaSeq S4	2x151	52360.4.311923.TAACCGGT-ACCGGTTA.filter-RNA.fastq.gz
GUNHY	190258	29541498	29054328	fukami315	378	NovaSeq S4	2x151	52363.4.312353.AGAAGCGT-ACGCTTCT.filter-RNA.fastq.gz
GUGXT	190259	32433256	31516694	fukami316	379	NovaSeq S4	2x151	52360.4.311923.CAGAGTGT-ACACTCTG.filter-RNA.fastq.gz
GUNGU	190260	31379232	30659002	fukami317	380	NovaSeq S4	2x151	52363.4.312353.ACCTCTGT-ACAGAGGT.filter-RNA.fastq.gz
GUNBB	190262	23299678	22785336	fukami319	381	NovaSeq S4	2x151	52363.4.312353.AGCTAACC-GGTTAGCT.filter-RNA.fastq.gz
GUYHO	190263	27569498	27146268	fukami320	382	NovaSeq S4	2x151	52370.3.313929.CCTTGATC-GATCAAGG.filter-RNA.fastq.gz
GUNXN	190265	28761162	28241112	fukami322	383	NovaSeq S4	2x151	52365.1.312552.TTGCCACT-AGTGGCAA.filter-RNA.fastq.gz
GUNTY	190266	26444198	26057426	fukami323	384	NovaSeq S4	2x151	52365.1.312552.CTGAAGCT-AGCTTCAG.filter-RNA.fastq.gz
GUPPW	190267	44190962	43988852	fukami324	385	NovaSeq S4	2x151	52363.4.312353.CAACACCT-AGGTGTTG.filter-RNA.fastq.gz
GUNPN	190268	32440052	32205074	fukami325	386	NovaSeq S4	2x151	52365.1.312552.ATGTAGCG-CGCTACAT.filter-RNA.fastq.gz
GUXAB	190269	35577102	34224384	fukami326	387	NovaSeq S4	2x151	52390.2.316305.TAGCGTCT-AGACGCTA.filter-RNA.fastq.gz
GUNPS	190270	31838556	31403564	fukami327	388	NovaSeq S4	2x151	52365.1.312552.CGTACGAA-TTCGTACG.filter-RNA.fastq.gz
GUNWO	190271	38034482	37480506	fukami328	389	NovaSeq S4	2x151	52365.1.312552.GTGTTCCT-AGGAACAC.filter-RNA.fastq.gz
GUUWW	190272	28496406	27908558	fukami329	390	NovaSeq S4	2x151	52390.1.316167.GTTCAACC-GGTTGAAC.filter-RNA.fastq.gz
GUYPO	190274	34404888	34172456	fukami331	391	NovaSeq S4	2x151	52370.3.313929.AAGGCTGA-TCAGCCTT.filter-RNA.fastq.gz
GUUYN	190278	28098686	27378198	fukami335	392	NovaSeq S4	2x151	52390.1.316167.AACGGTCA-TGACCGTT.filter-RNA.fastq.gz
GUNUW	190279	27192916	26450756	fukami336	393	NovaSeq S4	2x151	52365.1.312552.GTCATCGA-TCGATGAC.filter-RNA.fastq.gz
GUNNN	190280	25080374	24590350	fukami337	394	NovaSeq S4	2x151	52363.4.312353.CACCTTAC-GTAAGGTG.filter-RNA.fastq.gz
GUPSO	190282	38526982	38049566	fukami339	395	NovaSeq S4	2x151	52363.4.312353.GGACAATC-GATTGTCC.filter-RNA.fastq.gz
GUUTG	190283	32153894	31332704	fukami340	396	NovaSeq S4	2x151	52390.1.316167.TGTACACC-GGTGTACA.filter-RNA.fastq.gz
GUWZH	190284	40985338	40399026	fukami341	397	NovaSeq S4	2x151	52390.2.316305.CGTTGAGT-ACTCAACG.filter-RNA.fastq.gz
GUYPC	190285	31136036	30553142	fukami342	398	NovaSeq S4	2x151	52370.3.313929.AACCGTTC-GAACGGTT.filter-RNA.fastq.gz
GUNXP	190286	27914396	27497928	fukami343	399	NovaSeq S4	2x151	52365.1.312552.GATTGCTC-GAGCAATC.filter-RNA.fastq.gz
GUNSP	190287	22950288	22672234	fukami344	400	NovaSeq S4	2x151	52365.1.312552.ACATTGCG-CGCAATGT.filter-RNA.fastq.gz
GUNNO	190288	30267968	29903166	fukami345	401	NovaSeq S4	2x151	52363.4.312353.ACCGTAGT-ACTACGGT.filter-RNA.fastq.gz
GUGXY	190289	36736178	36150984	fukami346	402	NovaSeq S4	2x151	52360.4.311923.CTTGCTGT-ACAGCAAG.filter-RNA.fastq.gz
GUWZZ	190290	33514744	32476524	fukami347	403	NovaSeq S4	2x151	52390.2.316305.CAAGGTCT-AGACCTTG.filter-RNA.fastq.gz
GUONO	190291	39999108	39800298	fukami348	404	NovaSeq S4	2x151	52363.3.312215.TGACTGAC-GTCAGTCA.filter-RNA.fastq.gz
GUXAC	190292	39938472	39281710	fukami349	405	NovaSeq S4	2x151	52390.2.316305.AGCTCCTA-TAGGAGCT.filter-RNA.fastq.gz
GUNSO	190294	30118800	29856370	fukami351	406	NovaSeq S4	2x151	52365.1.312552.GTGCCATA-TATGGCAC.filter-RNA.fastq.gz
GUPTT	190295	39634280	39193216	fukami352	407	NovaSeq S4	2x151	52363.4.312353.CTACATCC-GGATGTAG.filter-RNA.fastq.gz
GUWYS	190296	26159662	25578544	fukami353	408	NovaSeq S4	2x151	52390.2.316305.TATTCGCC-GGCGAATA.filter-RNA.fastq.gz
GUYCG	190297	36879026	34838768	fukami354	409	NovaSeq S4	2x151	52370.3.313929.CAGGTATC-GATACCTG.filter-RNA.fastq.gz
GUNPT	190298	34149362	33754146	fukami355	410	NovaSeq S4	2x151	52365.1.312552.TTGACAGG-CCTGTCAA.filter-RNA.fastq.gz
GUYCP	190300	32526566	30908476	fukami357	411	NovaSeq S4	2x151	52370.3.313929.AATGCCTC-GAGGCATT.filter-RNA.fastq.gz
GUWYH	190302	35400164	34822486	fukami359	412	NovaSeq S4	2x151	52390.2.316305.ATGGTCCA-TGGACCAT.filter-RNA.fastq.gz
GUYCH	190304	30610682	30112902	fukami361	413	NovaSeq S4	2x151	52370.3.313929.TTACCGAG-CTCGGTAA.filter-RNA.fastq.gz
GUYCB	190305	26213392	25518968	fukami362	414	NovaSeq S4	2x151	52370.3.313929.CGTTATGC-GCATAACG.filter-RNA.fastq.gz
GUNHT	190306	23883996	23419442	fukami363	415	NovaSeq S4	2x151	52363.4.312353.TAACCGGT-ACCGGTTA.filter-RNA.fastq.gz
GUXAA	190307	28859390	28454406	fukami364	416	NovaSeq S4	2x151	52390.2.316305.TGTCCAGA-TCTGGACA.filter-RNA.fastq.gz
GUNWN	190308	32328484	31922192	fukami365	417	NovaSeq S4	2x151	52365.1.312552.CACAAGTC-GACTTGTG.filter-RNA.fastq.gz
GUPSX	190309	44310436	44113128	fukami366	418	NovaSeq S4	2x151	52363.4.312353.GTACTCTC-GAGAGTAC.filter-RNA.fastq.gz
GUUXB	190310	37190088	35862872	fukami367	419	NovaSeq S4	2x151	52390.1.316167.CTTGCTGT-ACAGCAAG.filter-RNA.fastq.gz
GUPTB	190312	43309978	42910320	fukami369	420	NovaSeq S4	2x151	52363.4.312353.ACAGCTCA-TGAGCTGT.filter-RNA.fastq.gz
GUPSG	190313	33305936	32987784	fukami370	421	NovaSeq S4	2x151	52363.4.312353.GTCGGTAA-TTACCGAC.filter-RNA.fastq.gz
GUNGS	190314	25419652	24683102	fukami371	422	NovaSeq S4	2x151	52363.4.312353.CAGAGTGT-ACACTCTG.filter-RNA.fastq.gz
GUWYT	190315	37184660	36523308	fukami372	423	NovaSeq S4	2x151	52390.2.316305.TGTACCGT-ACGGTACA.filter-RNA.fastq.gz
GUNOU	190317	58800440	58157592	fukami374	424	NovaSeq S4	2x151	52365.1.312552.GTCCACAT-ATGTGGAC.filter-RNA.fastq.gz
GUNHH	190318	27622772	27133288	fukami375	425	NovaSeq S4	2x151	52363.4.312353.CACTGACA-TGTCAGTG.filter-RNA.fastq.gz
GUNNP	190319	23447352	22950206	fukami376	426	NovaSeq S4	2x151	52363.4.312353.GTGAATCC-GGATTCAC.filter-RNA.fastq.gz
GUUTA	190320	33538214	32849744	fukami377	427	NovaSeq S4	2x151	52390.1.316167.GCCTTGTT-AACAAGGC.filter-RNA.fastq.gz
GUPPP	190321	46705246	46515644	fukami378	428	NovaSeq S4	2x151	52363.4.312353.TGCGAACT-AGTTCGCA.filter-RNA.fastq.gz
GUPSU	190322	35902136	35775430	fukami379	429	NovaSeq S4	2x151	52363.4.312353.CATAACGG-CCGTTATG.filter-RNA.fastq.gz
GUNUX	190323	33482834	33029946	fukami380	430	NovaSeq S4	2x151	52365.1.312552.GAAGAGGT-ACCTCTTC.filter-RNA.fastq.gz
GUNNW	190324	24996270	24315266	fukami381	431	NovaSeq S4	2x151	52363.4.312353.TCACAGCA-TGCTGTGA.filter-RNA.fastq.gz
GUWYZ	190326	31017360	30475448	fukami383	432	NovaSeq S4	2x151	52390.2.316305.CACCTTAC-GTAAGGTG.filter-RNA.fastq.gz
GUNHS	190327	27387572	26864236	fukami384	433	NovaSeq S4	2x151	52363.4.312353.CCAAGCAA-TTGCTTGG.filter-RNA.fastq.gz
GUPPT	190328	53095646	52801514	fukami385	434	NovaSeq S4	2x151	52363.4.312353.TCTCCGAT-ATCGGAGA.filter-RNA.fastq.gz
GUPTG	190329	45514998	44936408	fukami386	435	NovaSeq S4	2x151	52363.4.312353.GGCATACT-AGTATGCC.filter-RNA.fastq.gz
GUWZY	190331	30743492	30312220	fukami388	436	NovaSeq S4	2x151	52390.2.316305.ATGCACGA-TCGTGCAT.filter-RNA.fastq.gz
GUNWA	190332	33578308	32933730	fukami389	437	NovaSeq S4	2x151	52365.1.312552.GTCGGTAA-TTACCGAC.filter-RNA.fastq.gz
GUNWS	190333	33375990	32991130	fukami390	438	NovaSeq S4	2x151	52365.1.312552.TGATGTCC-GGACATCA.filter-RNA.fastq.gz
GUNNY	190334	25690018	25328708	fukami391	439	NovaSeq S4	2x151	52363.4.312353.CTATCGCA-TGCGATAG.filter-RNA.fastq.gz
GUWYW	190335	34034642	33865252	fukami392	440	NovaSeq S4	2x151	52390.2.316305.CCATACGT-ACGTATGG.filter-RNA.fastq.gz
GUPSY	190336	39125330	38761188	fukami393	441	NovaSeq S4	2x151	52363.4.312353.CAGGAGAT-ATCTCCTG.filter-RNA.fastq.gz
GUWZO	190337	34444102	33684282	fukami394	442	NovaSeq S4	2x151	52390.2.316305.GATCGAGT-ACTCGATC.filter-RNA.fastq.gz
GUNPH	190338	16365060	16121226	fukami395	443	NovaSeq S4	2x151	52365.1.312552.ACTCAGAC-GTCTGAGT.filter-RNA.fastq.gz
GUYPW	190339	28831906	28329500	fukami396	444	NovaSeq S4	2x151	52370.3.313929.CTACATCC-GGATGTAG.filter-RNA.fastq.gz
GUWYN	190340	29344730	28999808	fukami397	445	NovaSeq S4	2x151	52390.2.316305.GTCTAGGT-ACCTAGAC.filter-RNA.fastq.gz
GUYOS	190341	28971074	28225574	fukami398	446	NovaSeq S4	2x151	52370.3.313929.GGACAATC-GATTGTCC.filter-RNA.fastq.gz
GUWYO	190342	34551778	34348030	fukami399	447	NovaSeq S4	2x151	52390.2.316305.AAGAGCCA-TGGCTCTT.filter-RNA.fastq.gz
GUGYO	190343	38083560	37674652	fukami400	448	NovaSeq S4	2x151	52360.4.311923.TGCTTGGT-ACCAAGCA.filter-RNA.fastq.gz
GUUXA	190344	33094054	32498320	fukami401	449	NovaSeq S4	2x151	52390.1.316167.TGGATCAC-GTGATCCA.filter-RNA.fastq.gz
GUUUP	190345	42855246	42322308	fukami402	450	NovaSeq S4	2x151	52390.1.316167.GAACGCTT-AAGCGTTC.filter-RNA.fastq.gz
GUPZH	190346	30421410	29983204	fukami403	451	NovaSeq S4	2x151	52365.1.312552.TACGCCTT-AAGGCGTA.filter-RNA.fastq.gz
GUPXP	190347	27139214	26973278	fukami404	452	NovaSeq S4	2x151	52365.1.312552.TGTACACC-GGTGTACA.filter-RNA.fastq.gz
GUPYP	190348	26965614	26759092	fukami405	453	NovaSeq S4	2x151	52365.1.312552.CCTCAGTT-AACTGAGG.filter-RNA.fastq.gz
GUPYH	190349	26811162	26668232	fukami406	454	NovaSeq S4	2x151	52365.1.312552.CGCTTAAC-GTTAAGCG.filter-RNA.fastq.gz
GUPXZ	190350	29272698	28971890	fukami407	455	NovaSeq S4	2x151	52365.1.312552.CGTAGGTT-AACCTACG.filter-RNA.fastq.gz
GUUYW	190351	43884298	41995326	fukami408	456	NovaSeq S4	2x151	52390.1.316167.GTGAATCC-GGATTCAC.filter-RNA.fastq.gz
GUYPB	190352	29267686	29125976	fukami409	457	NovaSeq S4	2x151	52370.3.313929.TGGTACAG-CTGTACCA.filter-RNA.fastq.gz
GUWWH	190356	42161362	41921754	fukami413	458	NovaSeq S4	2x151	52390.2.316305.ACGATGAC-GTCATCGT.filter-RNA.fastq.gz
GUPXS	190357	32642596	31983804	fukami414	459	NovaSeq S4	2x151	52365.1.312552.TCGCTGTT-AACAGCGA.filter-RNA.fastq.gz
GUWWO	190358	24782966	24197754	fukami415	460	NovaSeq S4	2x151	52390.2.316305.AGTAGTCC-GGACTACT.filter-RNA.fastq.gz
GUWXO	190359	34069582	33385116	fukami416	461	NovaSeq S4	2x151	52390.2.316305.CTTGCTGT-ACAGCAAG.filter-RNA.fastq.gz
GUWXT	190360	34518544	34143748	fukami417	462	NovaSeq S4	2x151	52390.2.316305.GAAGTACC-GGTACTTC.filter-RNA.fastq.gz
GUWXA	190362	40973394	40758638	fukami419	463	NovaSeq S4	2x151	52390.2.316305.CACGTTGT-ACAACGTG.filter-RNA.fastq.gz
GUUXH	190363	35801394	34983556	fukami420	464	NovaSeq S4	2x151	52390.1.316167.GAAGTACC-GGTACTTC.filter-RNA.fastq.gz
GUUYY	190364	29281292	27885304	fukami421	465	NovaSeq S4	2x151	52390.1.316167.CTCGATAC-GTATCGAG.filter-RNA.fastq.gz
GUPXW	190365	24312862	23809742	fukami422	466	NovaSeq S4	2x151	52365.1.312552.ACGGAACA-TGTTCCGT.filter-RNA.fastq.gz
GUWUZ	190366	41377332	41074322	fukami423	467	NovaSeq S4	2x151	52390.2.316305.GTGAGCTT-AAGCTCAC.filter-RNA.fastq.gz
GUUTB	190367	33353854	32144948	fukami424	468	NovaSeq S4	2x151	52390.1.316167.CTGACACA-TGTGTCAG.filter-RNA.fastq.gz
GUYPZ	190368	31723172	31283842	fukami425	469	NovaSeq S4	2x151	52370.3.313929.CTTCACCA-TGGTGAAG.filter-RNA.fastq.gz
GUPSW	190369	42297410	42076228	fukami426	470	NovaSeq S4	2x151	52363.4.312353.TGATGTCC-GGACATCA.filter-RNA.fastq.gz
GUPXU	190370	34920714	34611120	fukami427	471	NovaSeq S4	2x151	52365.1.312552.GGACTGTT-AACAGTCC.filter-RNA.fastq.gz
GUYSA	190371	29088690	28417508	fukami428	472	NovaSeq S4	2x151	52370.3.313929.GAAGTTGG-CCAACTTC.filter-RNA.fastq.gz
GUPYU	190372	36711090	35861282	fukami429	473	NovaSeq S4	2x151	52365.1.312552.GTAACGAC-GTCGTTAC.filter-RNA.fastq.gz
GUPXX	190373	34062902	33748934	fukami430	474	NovaSeq S4	2x151	52365.1.312552.GTTCGGTT-AACCGAAC.filter-RNA.fastq.gz
GUWXP	190374	32787542	32449620	fukami431	475	NovaSeq S4	2x151	52390.2.316305.GCCATAAC-GTTATGGC.filter-RNA.fastq.gz
GUUYT	190375	27487244	25999784	fukami432	476	NovaSeq S4	2x151	52390.1.316167.CACCTTAC-GTAAGGTG.filter-RNA.fastq.gz
GUPYC	190376	32931708	32669794	fukami433	477	NovaSeq S4	2x151	52365.1.312552.ACCATCCA-TGGATGGT.filter-RNA.fastq.gz
GUPXG	190377	30794318	30440406	fukami434	478	NovaSeq S4	2x151	52365.1.312552.TACCAACC-GGTTGGTA.filter-RNA.fastq.gz
GUWWN	190378	46446086	45953906	fukami435	479	NovaSeq S4	2x151	52390.2.316305.TACGCCTT-AAGGCGTA.filter-RNA.fastq.gz
GUPYT	190379	40030898	39676910	fukami436	480	NovaSeq S4	2x151	52365.1.312552.ACGGTCTT-AAGACCGT.filter-RNA.fastq.gz
GUPZT	190380	32053826	31625530	fukami437	481	NovaSeq S4	2x151	52365.1.312552.AGAATGCC-GGCATTCT.filter-RNA.fastq.gz
GUPZP	190381	23111566	22976594	fukami438	482	NovaSeq S4	2x151	52365.1.312552.TCTCTTCC-GGAAGAGA.filter-RNA.fastq.gz
GUOGZ	190382	39819642	39375756	fukami439	483	NovaSeq S4	2x151	52363.3.312215.AGCTAACC-GGTTAGCT.filter-RNA.fastq.gz
GUWXC	190383	47107296	46509572	fukami440	484	NovaSeq S4	2x151	52390.2.316305.CAGAGTGT-ACACTCTG.filter-RNA.fastq.gz
GUPXT	190384	39408268	38617382	fukami441	485	NovaSeq S4	2x151	52365.1.312552.AGCTAACC-GGTTAGCT.filter-RNA.fastq.gz
GUWWZ	190385	34297772	33860708	fukami442	486	NovaSeq S4	2x151	52390.2.316305.TCGGTTAC-GTAACCGA.filter-RNA.fastq.gz
GUUYB	190386	34238392	33332090	fukami443	487	NovaSeq S4	2x151	52390.1.316167.AAGAGCCA-TGGCTCTT.filter-RNA.fastq.gz
GUPSA	190387	38982876	38461360	fukami444	488	NovaSeq S4	2x151	52363.4.312353.GAAGAGGT-ACCTCTTC.filter-RNA.fastq.gz
GUWYC	190388	42275804	41591614	fukami445	489	NovaSeq S4	2x151	52390.2.316305.CCAAGCAA-TTGCTTGG.filter-RNA.fastq.gz
GUPYZ	190389	26543844	25950630	fukami446	490	NovaSeq S4	2x151	52365.1.312552.CAATCGAC-GTCGATTG.filter-RNA.fastq.gz
GUOGW	190390	52758682	52463424	fukami447	491	NovaSeq S4	2x151	52363.3.312215.CCAGTGTT-AACACTGG.filter-RNA.fastq.gz
GUUUN	190391	28661318	28308144	fukami448	492	NovaSeq S4	2x151	52390.1.316167.ACGGTCTT-AAGACCGT.filter-RNA.fastq.gz
GUWXB	190393	28463616	28096226	fukami450	493	NovaSeq S4	2x151	52390.2.316305.GTTCAACC-GGTTGAAC.filter-RNA.fastq.gz
GUWWX	190394	39552454	39139896	fukami451	494	NovaSeq S4	2x151	52390.2.316305.AGCAAGCA-TGCTTGCT.filter-RNA.fastq.gz
GUOOU	190395	41104266	40697628	fukami452	495	NovaSeq S4	2x151	52363.3.312215.CTTGCTGT-ACAGCAAG.filter-RNA.fastq.gz
GUPZB	190396	31967284	31721926	fukami453	496	NovaSeq S4	2x151	52365.1.312552.TGACTGAC-GTCAGTCA.filter-RNA.fastq.gz
GUWUT	190397	27693010	27330134	fukami454	497	NovaSeq S4	2x151	52390.2.316305.TTCGTACC-GGTACGAA.filter-RNA.fastq.gz
GUPSS	190398	34942112	34722784	fukami455	498	NovaSeq S4	2x151	52363.4.312353.CACAAGTC-GACTTGTG.filter-RNA.fastq.gz
GUWWY	190399	36193184	36029982	fukami456	499	NovaSeq S4	2x151	52390.2.316305.CGACCATT-AATGGTCG.filter-RNA.fastq.gz
GUUWT	190400	36250994	34796272	fukami457	500	NovaSeq S4	2x151	52390.1.316167.TCGGTTAC-GTAACCGA.filter-RNA.fastq.gz
GUSAC	190401	32983376	32215462	fukami458	501	NovaSeq S4	2x151	52365.1.312552.GGATACCA-TGGTATCC.filter-RNA.fastq.gz
GUPYA	190402	31770780	30711636	fukami459	502	NovaSeq S4	2x151	52365.1.312552.TCATCACC-GGTGATGA.filter-RNA.fastq.gz
GUPTX	190403	45935402	45554218	fukami460	503	NovaSeq S4	2x151	52363.4.312353.CTTCACCA-TGGTGAAG.filter-RNA.fastq.gz
GUPYG	190404	31212314	30100908	fukami461	504	NovaSeq S4	2x151	52365.1.312552.GCTACGTT-AACGTAGC.filter-RNA.fastq.gz
GUUTN	190405	28180342	27375594	fukami462	505	NovaSeq S4	2x151	52390.1.316167.AGCTAACC-GGTTAGCT.filter-RNA.fastq.gz
GUPZO	190406	30433062	29487616	fukami463	506	NovaSeq S4	2x151	52365.1.312552.AGAGCCTT-AAGGCTCT.filter-RNA.fastq.gz
GUUUA	190407	31297014	30827206	fukami464	507	NovaSeq S4	2x151	52390.1.316167.CGCTTAAC-GTTAAGCG.filter-RNA.fastq.gz
GUPZS	190409	35678226	35005610	fukami466	508	NovaSeq S4	2x151	52365.1.312552.GAGGACTT-AAGTCCTC.filter-RNA.fastq.gz
GUWYB	190410	32892858	32623102	fukami467	509	NovaSeq S4	2x151	52390.2.316305.TTGTCGGT-ACCGACAA.filter-RNA.fastq.gz
GUWWU	190411	30169140	29753018	fukami468	510	NovaSeq S4	2x151	52390.2.316305.AGAATGCC-GGCATTCT.filter-RNA.fastq.gz
GUPTC	190412	53557452	53306332	fukami469	511	NovaSeq S4	2x151	52363.4.312353.GTTCTCGT-ACGAGAAC.filter-RNA.fastq.gz
GUPZW	190413	30971182	30074898	fukami470	512	NovaSeq S4	2x151	52365.1.312552.AGCAAGCA-TGCTTGCT.filter-RNA.fastq.gz
GUWUY	190414	33106122	32627156	fukami471	513	NovaSeq S4	2x151	52390.2.316305.ATTGAGCC-GGCTCAAT.filter-RNA.fastq.gz
GUPXB	190415	34360304	33538972	fukami472	514	NovaSeq S4	2x151	52365.1.312552.ATAGCGGT-ACCGCTAT.filter-RNA.fastq.gz
GUOPG	190416	49071792	48654276	fukami473	515	NovaSeq S4	2x151	52363.3.312215.TGCTTGGT-ACCAAGCA.filter-RNA.fastq.gz
GUWWG	190418	38280926	37787230	fukami475	516	NovaSeq S4	2x151	52390.2.316305.GTCTCCTT-AAGGAGAC.filter-RNA.fastq.gz
GUPZX	190419	29024018	28057132	fukami476	517	NovaSeq S4	2x151	52365.1.312552.CGACCATT-AATGGTCG.filter-RNA.fastq.gz
GUSAB	190420	32373770	32027240	fukami477	518	NovaSeq S4	2x151	52365.1.312552.CAGAGTGT-ACACTCTG.filter-RNA.fastq.gz
GUWUW	190421	30617384	30295978	fukami478	519	NovaSeq S4	2x151	52390.2.316305.GTAACGAC-GTCGTTAC.filter-RNA.fastq.gz
GUUTW	190422	53891558	52806228	fukami479	520	NovaSeq S4	2x151	52390.1.316167.TCATCACC-GGTGATGA.filter-RNA.fastq.gz
GUPZA	190423	25907334	25243918	fukami480	521	NovaSeq S4	2x151	52365.1.312552.CCTTCCTT-AAGGAAGG.filter-RNA.fastq.gz
GUUUB	190424	69363972	66389988	fukami481	522	NovaSeq S4	2x151	52390.1.316167.TCCGAGTT-AACTCGGA.filter-RNA.fastq.gz
GUPYB	190425	38611866	37918846	fukami482	523	NovaSeq S4	2x151	52365.1.312552.TGTGCGTT-AACGCACA.filter-RNA.fastq.gz
GUUXU	190426	27138106	26189420	fukami483	524	NovaSeq S4	2x151	52390.1.316167.CATACCAC-GTGGTATG.filter-RNA.fastq.gz
GUUXT	190427	31921000	31062552	fukami484	525	NovaSeq S4	2x151	52390.1.316167.TGCTTGGT-ACCAAGCA.filter-RNA.fastq.gz
GUSAA	190428	30855388	30539210	fukami485	526	NovaSeq S4	2x151	52365.1.312552.GTTCAACC-GGTTGAAC.filter-RNA.fastq.gz
GUSAH	190429	33623096	33026648	fukami486	527	NovaSeq S4	2x151	52365.1.312552.TGGATCAC-GTGATCCA.filter-RNA.fastq.gz
GUPTP	190430	45621966	45213070	fukami487	528	NovaSeq S4	2x151	52363.4.312353.AACGTGGA-TCCACGTT.filter-RNA.fastq.gz
GUWXY	190431	34055002	33641108	fukami488	529	NovaSeq S4	2x151	52390.2.316305.CACTGACA-TGTCAGTG.filter-RNA.fastq.gz
GUOPT	190432	31694846	31351868	fukami489	530	NovaSeq S4	2x151	52363.3.312215.GTCTAGGT-ACCTAGAC.filter-RNA.fastq.gz
GUWXN	190433	36057174	35795832	fukami490	531	NovaSeq S4	2x151	52390.2.316305.TGGATCAC-GTGATCCA.filter-RNA.fastq.gz
GUWWS	190434	33275564	33093302	fukami491	532	NovaSeq S4	2x151	52390.2.316305.TCTCTTCC-GGAAGAGA.filter-RNA.fastq.gz
GUWWC	190435	31505904	31299592	fukami492	533	NovaSeq S4	2x151	52390.2.316305.TGACTGAC-GTCAGTCA.filter-RNA.fastq.gz
GUPZG	190436	22951052	22756474	fukami493	534	NovaSeq S4	2x151	52365.1.312552.ACGATGAC-GTCATCGT.filter-RNA.fastq.gz
GUOHH	190437	48920660	48401718	fukami494	535	NovaSeq S4	2x151	52363.3.312215.CGTAGGTT-AACCTACG.filter-RNA.fastq.gz
GUUUZ	190438	32197804	31262698	fukami495	536	NovaSeq S4	2x151	52390.1.316167.ACGATGAC-GTCATCGT.filter-RNA.fastq.gz
GUUXN	190439	48252684	47385844	fukami496	537	NovaSeq S4	2x151	52390.1.316167.CGAACTGT-ACAGTTCG.filter-RNA.fastq.gz
GUUXW	190440	31087196	30619208	fukami497	538	NovaSeq S4	2x151	52390.1.316167.TTGTCGGT-ACCGACAA.filter-RNA.fastq.gz
GUUZO	190441	33071684	31940114	fukami498	539	NovaSeq S4	2x151	52390.1.316167.TGTGGTAC-GTACCACA.filter-RNA.fastq.gz
GUPZC	190442	32225320	31243786	fukami499	540	NovaSeq S4	2x151	52365.1.312552.GTCTCCTT-AAGGAGAC.filter-RNA.fastq.gz
GUPXY	190443	22511796	21908788	fukami500	541	NovaSeq S4	2x151	52365.1.312552.ACAGCAAC-GTTGCTGT.filter-RNA.fastq.gz
GUPYY	190444	32998424	32211924	fukami501	542	NovaSeq S4	2x151	52365.1.312552.GTGAGCTT-AAGCTCAC.filter-RNA.fastq.gz
GUUXO	190445	31439016	30603242	fukami502	543	NovaSeq S4	2x151	52390.1.316167.TAGTGACC-GGTCACTA.filter-RNA.fastq.gz
GUPTN	190446	36643216	36152240	fukami503	544	NovaSeq S4	2x151	52363.4.312353.GAGCAGTA-TACTGCTC.filter-RNA.fastq.gz
GUPXN	190447	30884834	30353040	fukami504	545	NovaSeq S4	2x151	52365.1.312552.CTGACACA-TGTGTCAG.filter-RNA.fastq.gz
GUUWH	190448	63103248	61423272	fukami505	546	NovaSeq S4	2x151	52390.1.316167.GAGGACTT-AAGTCCTC.filter-RNA.fastq.gz
GUNXO	190449	34400088	33848696	fukami506	547	NovaSeq S4	2x151	52365.1.312552.CTACATCC-GGATGTAG.filter-RNA.fastq.gz
GUSAG	190450	27710718	27093352	fukami507	548	NovaSeq S4	2x151	52365.1.312552.ACCTCTGT-ACAGAGGT.filter-RNA.fastq.gz
GUPZY	190451	23566286	22993208	fukami508	549	NovaSeq S4	2x151	52365.1.312552.TCGGTTAC-GTAACCGA.filter-RNA.fastq.gz
GUUZU	190452	28624032	28082006	fukami509	550	NovaSeq S4	2x151	52390.1.316167.TGTCCAGA-TCTGGACA.filter-RNA.fastq.gz
GUPZN	190453	21297176	20717284	fukami510	551	NovaSeq S4	2x151	52365.1.312552.AGTAGTCC-GGACTACT.filter-RNA.fastq.gz
GUUUX	190454	51476278	50483256	fukami511	552	NovaSeq S4	2x151	52390.1.316167.TGACTGAC-GTCAGTCA.filter-RNA.fastq.gz
GUNUA	190455	30551762	30238386	fukami512	553	NovaSeq S4	2x151	52365.1.312552.ACGACTTG-CAAGTCGT.filter-RNA.fastq.gz
GUYPH	190456	36810230	36494092	fukami513	554	NovaSeq S4	2x151	52370.3.313929.GTTCTCGT-ACGAGAAC.filter-RNA.fastq.gz
GUUTU	190457	36355854	35590038	fukami514	555	NovaSeq S4	2x151	52390.1.316167.CGTAGGTT-AACCTACG.filter-RNA.fastq.gz
GUUYA	190458	29896614	28974852	fukami515	556	NovaSeq S4	2x151	52390.1.316167.GTCTAGGT-ACCTAGAC.filter-RNA.fastq.gz
GUWUX	190459	41762920	41485526	fukami516	557	NovaSeq S4	2x151	52390.2.316305.GAACGCTT-AAGCGTTC.filter-RNA.fastq.gz
GUUTT	190460	26421950	25689404	fukami517	558	NovaSeq S4	2x151	52390.1.316167.ACAGCAAC-GTTGCTGT.filter-RNA.fastq.gz
GUUZW	190461	29413670	27846682	fukami518	559	NovaSeq S4	2x151	52390.1.316167.TAGCGTCT-AGACGCTA.filter-RNA.fastq.gz
GUPZZ	190462	30072330	29839670	fukami519	560	NovaSeq S4	2x151	52365.1.312552.CACGTTGT-ACAACGTG.filter-RNA.fastq.gz
GUWXX	190463	33698736	33034860	fukami520	561	NovaSeq S4	2x151	52390.2.316305.TGGCATGT-ACATGCCA.filter-RNA.fastq.gz
GUPXH	190464	28320410	27768884	fukami521	562	NovaSeq S4	2x151	52365.1.312552.GCCTTGTT-AACAAGGC.filter-RNA.fastq.gz
GUUSW	190465	43145992	42449800	fukami522	563	NovaSeq S4	2x151	52390.1.316167.GAGCTCAA-TTGAGCTC.filter-RNA.fastq.gz
GUPYW	190466	39089614	38457434	fukami523	564	NovaSeq S4	2x151	52365.1.312552.GAACGCTT-AAGCGTTC.filter-RNA.fastq.gz
GUPPX	190467	42836694	42479204	fukami524	565	NovaSeq S4	2x151	52363.4.312353.TTGTGTGC-GCACACAA.filter-RNA.fastq.gz
GUUXC	190468	32745244	31917772	fukami525	566	NovaSeq S4	2x151	52390.1.316167.GCCATAAC-GTTATGGC.filter-RNA.fastq.gz
GUUWC	190469	42176550	41001718	fukami526	567	NovaSeq S4	2x151	52390.1.316167.AGAGCCTT-AAGGCTCT.filter-RNA.fastq.gz
GUUYS	190470	35927770	35436596	fukami527	568	NovaSeq S4	2x151	52390.1.316167.TTGGACGT-ACGTCCAA.filter-RNA.fastq.gz
GUWXH	190471	37162016	36760514	fukami528	569	NovaSeq S4	2x151	52390.2.316305.ACCTCTGT-ACAGAGGT.filter-RNA.fastq.gz
GUWXZ	190473	35724700	35540198	fukami530	570	NovaSeq S4	2x151	52390.2.316305.TGCTTGGT-ACCAAGCA.filter-RNA.fastq.gz
GUWWP	190475	44185204	43375034	fukami532	571	NovaSeq S4	2x151	52390.2.316305.AGAGCCTT-AAGGCTCT.filter-RNA.fastq.gz
GUPXC	190476	26410730	26256684	fukami533	572	NovaSeq S4	2x151	52365.1.312552.CGGTTGTT-AACAACCG.filter-RNA.fastq.gz
GUUXS	190477	21590572	20970446	fukami534	573	NovaSeq S4	2x151	52390.1.316167.CACTGACA-TGTCAGTG.filter-RNA.fastq.gz
GUPYN	190478	29236170	28922066	fukami535	574	NovaSeq S4	2x151	52365.1.312552.TCCGAGTT-AACTCGGA.filter-RNA.fastq.gz
GUUTO	190479	58622168	57197726	fukami536	575	NovaSeq S4	2x151	52390.1.316167.GGACTGTT-AACAGTCC.filter-RNA.fastq.gz
GUWXU	190480	38231994	38013492	fukami537	576	NovaSeq S4	2x151	52390.2.316305.CGAACTGT-ACAGTTCG.filter-RNA.fastq.gz
GUUWB	190481	31724856	31186304	fukami538	577	NovaSeq S4	2x151	52390.1.316167.AGTAGTCC-GGACTACT.filter-RNA.fastq.gz
GUPYX	190483	24583218	23833978	fukami540	578	NovaSeq S4	2x151	52365.1.312552.ATTGAGCC-GGCTCAAT.filter-RNA.fastq.gz
GUPXA	190484	33195042	32936728	fukami541	579	NovaSeq S4	2x151	52365.1.312552.GAGCTCAA-TTGAGCTC.filter-RNA.fastq.gz
GUWXS	190486	35870528	35300742	fukami543	580	NovaSeq S4	2x151	52390.2.316305.ATGCCTGT-ACAGGCAT.filter-RNA.fastq.gz
GUPPZ	190487	41526210	41240494	fukami544	581	NovaSeq S4	2x151	52363.4.312353.GTCATCGA-TCGATGAC.filter-RNA.fastq.gz
GUWUU	190488	43066030	42794144	fukami545	582	NovaSeq S4	2x151	52390.2.316305.ACGGTCTT-AAGACCGT.filter-RNA.fastq.gz
GUPTA	190489	33547798	33000904	fukami546	583	NovaSeq S4	2x151	52363.4.312353.AACCGTTC-GAACGGTT.filter-RNA.fastq.gz
GUWWW	190490	34411738	34179744	fukami547	584	NovaSeq S4	2x151	52390.2.316305.GCTGGATT-AATCCAGC.filter-RNA.fastq.gz
GUUSZ	190491	42267132	40312442	fukami548	585	NovaSeq S4	2x151	52390.1.316167.TACCAACC-GGTTGGTA.filter-RNA.fastq.gz
GUUTY	190492	49363958	47924854	fukami549	586	NovaSeq S4	2x151	52390.1.316167.ACCATCCA-TGGATGGT.filter-RNA.fastq.gz
GUPZU	190493	29745664	29543544	fukami550	587	NovaSeq S4	2x151	52365.1.312552.GCTGGATT-AATCCAGC.filter-RNA.fastq.gz
GUWXW	190494	35954566	35345158	fukami551	588	NovaSeq S4	2x151	52390.2.316305.TAGTGACC-GGTCACTA.filter-RNA.fastq.gz
GUPYS	190495	34037024	33483788	fukami552	589	NovaSeq S4	2x151	52365.1.312552.TTCGTACC-GGTACGAA.filter-RNA.fastq.gz
GUUWP	190496	33904484	32688014	fukami553	590	NovaSeq S4	2x151	52390.1.316167.AGCAAGCA-TGCTTGCT.filter-RNA.fastq.gz
GUUUO	190497	32395086	31601368	fukami554	591	NovaSeq S4	2x151	52390.1.316167.GTAACGAC-GTCGTTAC.filter-RNA.fastq.gz
GUWYA	190498	35113568	34799580	fukami555	592	NovaSeq S4	2x151	52390.2.316305.CATACCAC-GTGGTATG.filter-RNA.fastq.gz
GUUYH	190499	32630692	31387140	fukami556	593	NovaSeq S4	2x151	52390.1.316167.TGTACCGT-ACGGTACA.filter-RNA.fastq.gz
GUPSB	190500	47632460	47435466	fukami557	594	NovaSeq S4	2x151	52363.4.312353.AGTCGACA-TGTCGACT.filter-RNA.fastq.gz
GUWWA	190501	32258746	31850140	fukami558	595	NovaSeq S4	2x151	52390.2.316305.CAATCGAC-GTCGATTG.filter-RNA.fastq.gz
GUWXG	190502	33279740	33009006	fukami559	596	NovaSeq S4	2x151	52390.2.316305.GGATACCA-TGGTATCC.filter-RNA.fastq.gz
GUPXO	190503	32653590	32426534	fukami560	597	NovaSeq S4	2x151	52365.1.312552.CCAGTGTT-AACACTGG.filter-RNA.fastq.gz
GUPNU	190504	37487202	37044276	fukami561	598	NovaSeq S4	2x151	52363.4.312353.ACATTGCG-CGCAATGT.filter-RNA.fastq.gz
GUPGZ	190505	33019934	32628516	fukami562	599	NovaSeq S4	2x151	52363.4.312353.CGTTATGC-GCATAACG.filter-RNA.fastq.gz
GUPOT	190507	41827598	41359874	fukami564	600	NovaSeq S4	2x151	52363.4.312353.CGCTAGTA-TACTAGCG.filter-RNA.fastq.gz
GUPHO	190508	36037388	35831082	fukami565	601	NovaSeq S4	2x151	52363.4.312353.GGATTCGT-ACGAATCC.filter-RNA.fastq.gz
GUPOS	190509	45950206	45724578	fukami566	602	NovaSeq S4	2x151	52363.4.312353.GCTATCCT-AGGATAGC.filter-RNA.fastq.gz
GUNXH	190510	32283692	31841116	fukami567	603	NovaSeq S4	2x151	52365.1.312552.AACGTGGA-TCCACGTT.filter-RNA.fastq.gz
GUUWG	190511	28457638	28053050	fukami568	604	NovaSeq S4	2x151	52390.1.316167.TCTCTTCC-GGAAGAGA.filter-RNA.fastq.gz
GUOHC	190512	44101136	43754158	fukami569	605	NovaSeq S4	2x151	52363.3.312215.GTTCGGTT-AACCGAAC.filter-RNA.fastq.gz
GUPOO	190513	51610900	51291140	fukami570	606	NovaSeq S4	2x151	52363.4.312353.CGATGCTT-AAGCATCG.filter-RNA.fastq.gz
GUPHN	190514	36407098	36031850	fukami571	607	NovaSeq S4	2x151	52363.4.312353.AATGCCTC-GAGGCATT.filter-RNA.fastq.gz
GUPNX	190516	40741658	40182380	fukami573	608	NovaSeq S4	2x151	52363.4.312353.ACGACAGA-TCTGTCGT.filter-RNA.fastq.gz
GUPHG	190517	45330588	44815370	fukami574	609	NovaSeq S4	2x151	52363.4.312353.TTACGGCT-AGCCGTAA.filter-RNA.fastq.gz
GUOOH	190518	47579486	47302188	fukami575	610	NovaSeq S4	2x151	52363.3.312215.CACGTTGT-ACAACGTG.filter-RNA.fastq.gz
GUPOU	190519	46083378	45832018	fukami576	611	NovaSeq S4	2x151	52363.4.312353.TCCGTGAA-TTCACGGA.filter-RNA.fastq.gz
GUPTZ	190520	56189876	55846752	fukami577	612	NovaSeq S4	2x151	52363.4.312353.CTGATCGT-ACGATCAG.filter-RNA.fastq.gz
GUPNS	190521	47049056	46678530	fukami578	613	NovaSeq S4	2x151	52363.4.312353.ACTCCATC-GATGGAGT.filter-RNA.fastq.gz
GUNUN	190522	31249942	30673342	fukami579	614	NovaSeq S4	2x151	52365.1.312552.CATCGTGA-TCACGATG.filter-RNA.fastq.gz
GUUYU	190523	38602218	38100532	fukami580	615	NovaSeq S4	2x151	52390.1.316167.ACCGTAGT-ACTACGGT.filter-RNA.fastq.gz
GUNXT	190524	30560426	30008646	fukami581	616	NovaSeq S4	2x151	52365.1.312552.CTTCACCA-TGGTGAAG.filter-RNA.fastq.gz
GUPHW	190525	44642036	44176324	fukami582	617	NovaSeq S4	2x151	52363.4.312353.CGTACGAA-TTCGTACG.filter-RNA.fastq.gz
GUNTZ	190526	31568086	31007708	fukami583	618	NovaSeq S4	2x151	52365.1.312552.TCCTTAGC-GCTAAGGA.filter-RNA.fastq.gz
GUPNA	190527	48685560	48399818	fukami584	619	NovaSeq S4	2x151	52363.4.312353.CTCTACTC-GAGTAGAG.filter-RNA.fastq.gz
GUPNT	190528	41781996	41613802	fukami585	620	NovaSeq S4	2x151	52363.4.312353.GTGCCATA-TATGGCAC.filter-RNA.fastq.gz
GUPOG	190529	45288450	45015878	fukami586	621	NovaSeq S4	2x151	52363.4.312353.TCAAGGAC-GTCCTTGA.filter-RNA.fastq.gz
GUOHG	190530	39453864	39017264	fukami587	622	NovaSeq S4	2x151	52363.3.312215.ACAGCAAC-GTTGCTGT.filter-RNA.fastq.gz
GUPOH	190531	38634340	38316570	fukami588	623	NovaSeq S4	2x151	52363.4.312353.CCTTGATC-GATCAAGG.filter-RNA.fastq.gz
GUOOA	190532	58464228	58036704	fukami589	624	NovaSeq S4	2x151	52363.3.312215.GCTGGATT-AATCCAGC.filter-RNA.fastq.gz
GUNUS	190533	30504334	30021558	fukami590	625	NovaSeq S4	2x151	52365.1.312552.CAACACCT-AGGTGTTG.filter-RNA.fastq.gz
GUNUG	190534	33405734	33062556	fukami591	626	NovaSeq S4	2x151	52365.1.312552.CTTCGTTC-GAACGAAG.filter-RNA.fastq.gz
GUPOB	190535	33121926	32960454	fukami592	627	NovaSeq S4	2x151	52363.4.312353.GATTACCG-CGGTAATC.filter-RNA.fastq.gz
GUNXG	190536	33365282	32853804	fukami593	628	NovaSeq S4	2x151	52365.1.312552.AGCGGAAT-ATTCCGCT.filter-RNA.fastq.gz
GUOOC	190537	45094298	44683830	fukami594	629	NovaSeq S4	2x151	52363.3.312215.CGACCATT-AATGGTCG.filter-RNA.fastq.gz
GUNUH	190538	31643744	31255666	fukami595	630	NovaSeq S4	2x151	52365.1.312552.TGCGAACT-AGTTCGCA.filter-RNA.fastq.gz
GUNUO	190539	32638632	32077640	fukami596	631	NovaSeq S4	2x151	52365.1.312552.TCTCCGAT-ATCGGAGA.filter-RNA.fastq.gz
GUOPO	190540	36991658	36295712	fukami597	632	NovaSeq S4	2x151	52363.3.312215.CCAAGCAA-TTGCTTGG.filter-RNA.fastq.gz
GUPHH	190543	29048188	28802768	fukami600	633	NovaSeq S4	2x151	52363.4.312353.TTCAGGAG-CTCCTGAA.filter-RNA.fastq.gz
GUNXW	190544	34483600	34000376	fukami601	634	NovaSeq S4	2x151	52365.1.312552.CTGATCGT-ACGATCAG.filter-RNA.fastq.gz
GUNWB	190545	31741528	30985320	fukami602	635	NovaSeq S4	2x151	52365.1.312552.CTCCTAGA-TCTAGGAG.filter-RNA.fastq.gz
GUPOA	190546	43932610	43507118	fukami603	636	NovaSeq S4	2x151	52363.4.312353.CGACGTTA-TAACGTCG.filter-RNA.fastq.gz
GUNUZ	190547	30292266	29727234	fukami604	637	NovaSeq S4	2x151	52365.1.312552.AAGCACTG-CAGTGCTT.filter-RNA.fastq.gz
GUPHU	190548	32847814	32612298	fukami605	638	NovaSeq S4	2x151	52363.4.312353.GACTTAGG-CCTAAGTC.filter-RNA.fastq.gz
GUOOX	190549	32426294	32116592	fukami606	639	NovaSeq S4	2x151	52363.3.312215.ATGCCTGT-ACAGGCAT.filter-RNA.fastq.gz
GUOPS	190550	23583516	23472978	fukami607	640	NovaSeq S4	2x151	52363.3.312215.ATGGTCCA-TGGACCAT.filter-RNA.fastq.gz
GUPHP	190551	39442566	39033188	fukami608	641	NovaSeq S4	2x151	52363.4.312353.ACTCAGAC-GTCTGAGT.filter-RNA.fastq.gz
GUUTH	190552	58520278	57400426	fukami609	642	NovaSeq S4	2x151	52390.1.316167.TCGCTGTT-AACAGCGA.filter-RNA.fastq.gz
GUUUU	190553	24543274	19317256	fukami610	643	NovaSeq S4	2x151	52390.1.316167.CAATCGAC-GTCGATTG.filter-RNA.fastq.gz
GUYPA	190554	34322142	33506384	fukami611	644	NovaSeq S4	2x151	52370.3.313929.CAGGAGAT-ATCTCCTG.filter-RNA.fastq.gz
GUONX	190555	29375032	29077118	fukami612	645	NovaSeq S4	2x151	52363.3.312215.TCTCTTCC-GGAAGAGA.filter-RNA.fastq.gz
GUPNP	190556	40435872	40225742	fukami613	646	NovaSeq S4	2x151	52363.4.312353.TTAGGTCG-CGACCTAA.filter-RNA.fastq.gz
GUPNZ	190557	38811054	38579656	fukami614	647	NovaSeq S4	2x151	52363.4.312353.GTCTGATC-GATCAGAC.filter-RNA.fastq.gz
GUPOC	190558	41143316	40432664	fukami615	648	NovaSeq S4	2x151	52363.4.312353.ATGGAAGG-CCTTCCAT.filter-RNA.fastq.gz
GUPON	190559	44775492	44438628	fukami616	649	NovaSeq S4	2x151	52363.4.312353.GGACCTAT-ATAGGTCC.filter-RNA.fastq.gz
GUOOZ	190560	38338306	38146676	fukami617	650	NovaSeq S4	2x151	52363.3.312215.CGAACTGT-ACAGTTCG.filter-RNA.fastq.gz
GUOHY	190561	40737880	40387716	fukami618	651	NovaSeq S4	2x151	52363.3.312215.TTCGTACC-GGTACGAA.filter-RNA.fastq.gz
GUPTW	190562	46039728	45638322	fukami619	652	NovaSeq S4	2x151	52363.4.312353.AGAACGAG-CTCGTTCT.filter-RNA.fastq.gz
GUPHX	190563	33995758	33695814	fukami620	653	NovaSeq S4	2x151	52363.4.312353.TTGACAGG-CCTGTCAA.filter-RNA.fastq.gz
GUOHO	190564	33870982	33537378	fukami621	654	NovaSeq S4	2x151	52363.3.312215.TGTGCGTT-AACGCACA.filter-RNA.fastq.gz
GUUZG	190565	33178548	31955992	fukami622	655	NovaSeq S4	2x151	52390.1.316167.AGTGCAGT-ACTGCACT.filter-RNA.fastq.gz
GUPOP	190566	42976510	42428292	fukami623	656	NovaSeq S4	2x151	52363.4.312353.TAGCCGAA-TTCGGCTA.filter-RNA.fastq.gz
GUUZB	190567	29874174	28926054	fukami624	657	NovaSeq S4	2x151	52390.1.316167.GATCGAGT-ACTCGATC.filter-RNA.fastq.gz
GUONB	190568	36640766	36327180	fukami625	658	NovaSeq S4	2x151	52363.3.312215.GAACGCTT-AAGCGTTC.filter-RNA.fastq.gz
GUOPP	190569	34439332	33763460	fukami626	659	NovaSeq S4	2x151	52363.3.312215.TAACCGGT-ACCGGTTA.filter-RNA.fastq.gz
GUPHB	190570	41068546	40530698	fukami627	660	NovaSeq S4	2x151	52363.4.312353.CAGGTATC-GATACCTG.filter-RNA.fastq.gz
GUNUP	190571	29733862	29262980	fukami628	661	NovaSeq S4	2x151	52365.1.312552.AGAGTAGC-GCTACTCT.filter-RNA.fastq.gz
GUPHS	190572	36964058	36776132	fukami629	662	NovaSeq S4	2x151	52363.4.312353.ATGTAGCG-CGCTACAT.filter-RNA.fastq.gz
GUUUH	190573	30739320	29541456	fukami630	663	NovaSeq S4	2x151	52390.1.316167.TTCGTACC-GGTACGAA.filter-RNA.fastq.gz
GUOPN	190574	39177710	38768506	fukami631	664	NovaSeq S4	2x151	52363.3.312215.TTGTCGGT-ACCGACAA.filter-RNA.fastq.gz
GUPGY	190575	48967564	48682074	fukami632	665	NovaSeq S4	2x151	52363.4.312353.GTCCACAT-ATGTGGAC.filter-RNA.fastq.gz
GUPNH	190576	39560240	39283162	fukami633	666	NovaSeq S4	2x151	52363.4.312353.TTCTCTCG-CGAGAGAA.filter-RNA.fastq.gz
GUOOB	190577	51039712	50438584	fukami634	667	NovaSeq S4	2x151	52363.3.312215.AGCAAGCA-TGCTTGCT.filter-RNA.fastq.gz
GUUZN	190578	30516198	29542590	fukami635	668	NovaSeq S4	2x151	52390.1.316167.ACACCAGT-ACTGGTGT.filter-RNA.fastq.gz
GUUSY	190580	38957466	37915806	fukami637	669	NovaSeq S4	2x151	52390.1.316167.CGGTTGTT-AACAACCG.filter-RNA.fastq.gz
GUUYZ	190581	35459940	33932722	fukami638	670	NovaSeq S4	2x151	52390.1.316167.CGTTGAGT-ACTCAACG.filter-RNA.fastq.gz
GUPHC	190582	42948172	42748100	fukami639	671	NovaSeq S4	2x151	52363.4.312353.TTACCGAG-CTCGGTAA.filter-RNA.fastq.gz
GUPHZ	190583	36379372	35956958	fukami640	672	NovaSeq S4	2x151	52363.4.312353.GATAGGCT-AGCCTATC.filter-RNA.fastq.gz
GUONZ	190584	26390594	26102660	fukami641	673	NovaSeq S4	2x151	52363.3.312215.AGAATGCC-GGCATTCT.filter-RNA.fastq.gz
GUOOP	190585	35409958	34972708	fukami642	674	NovaSeq S4	2x151	52363.3.312215.GGATACCA-TGGTATCC.filter-RNA.fastq.gz
GUONW	190586	57210412	56353746	fukami643	675	NovaSeq S4	2x151	52363.3.312215.AGAGCCTT-AAGGCTCT.filter-RNA.fastq.gz
GUYPN	190587	33874146	32831724	fukami644	676	NovaSeq S4	2x151	52370.3.313929.GGCATACT-AGTATGCC.filter-RNA.fastq.gz
GUONG	190588	43394718	43066330	fukami645	677	NovaSeq S4	2x151	52363.3.312215.GTGAGCTT-AAGCTCAC.filter-RNA.fastq.gz
GUPOX	190589	41151892	40841246	fukami646	678	NovaSeq S4	2x151	52363.4.312353.TTGCGAAG-CTTCGCAA.filter-RNA.fastq.gz
GUPNN	190590	34049394	33815614	fukami647	679	NovaSeq S4	2x151	52363.4.312353.ATACGACC-GGTCGTAT.filter-RNA.fastq.gz
GUOHT	190591	34752876	34494284	fukami648	680	NovaSeq S4	2x151	52363.3.312215.CGCTTAAC-GTTAAGCG.filter-RNA.fastq.gz
GUUXX	190592	51596786	50034338	fukami649	681	NovaSeq S4	2x151	52390.1.316167.CCAAGCAA-TTGCTTGG.filter-RNA.fastq.gz
GUNXB	190593	39989122	39432148	fukami650	682	NovaSeq S4	2x151	52365.1.312552.AAGGCTGA-TCAGCCTT.filter-RNA.fastq.gz
GUNWC	190594	31299514	30988326	fukami651	683	NovaSeq S4	2x151	52365.1.312552.TCTGAGAG-CTCTCAGA.filter-RNA.fastq.gz
GUOHN	190595	25319068	25045098	fukami652	684	NovaSeq S4	2x151	52363.3.312215.TCATCACC-GGTGATGA.filter-RNA.fastq.gz
GUUYP	190596	21106790	16622366	fukami653	685	NovaSeq S4	2x151	52390.1.316167.TTGAGGCA-TGCCTCAA.filter-RNA.fastq.gz
GUPNB	190597	31638996	31136632	fukami654	686	NovaSeq S4	2x151	52363.4.312353.CGTGATCA-TGATCACG.filter-RNA.fastq.gz
GUUZT	190598	48474524	46324418	fukami655	687	NovaSeq S4	2x151	52390.1.316167.CAAGGTCT-AGACCTTG.filter-RNA.fastq.gz
GUNWZ	190599	26168612	25143404	fukami656	688	NovaSeq S4	2x151	52365.1.312552.GTTCTCGT-ACGAGAAC.filter-RNA.fastq.gz
GUOOG	190600	30894610	30575180	fukami657	689	NovaSeq S4	2x151	52363.3.312215.TCGGTTAC-GTAACCGA.filter-RNA.fastq.gz
GUUZA	190601	33015726	32529132	fukami658	690	NovaSeq S4	2x151	52390.1.316167.TCACAGCA-TGCTGTGA.filter-RNA.fastq.gz
GUOHA	190602	59003224	58686728	fukami659	691	NovaSeq S4	2x151	52363.3.312215.GGACTGTT-AACAGTCC.filter-RNA.fastq.gz
GUONY	190603	39569988	39280610	fukami660	692	NovaSeq S4	2x151	52363.3.312215.GAGGACTT-AAGTCCTC.filter-RNA.fastq.gz
GUPHT	190604	37753304	37421316	fukami661	693	NovaSeq S4	2x151	52363.4.312353.GCAAGATC-GATCTTGC.filter-RNA.fastq.gz
GUPNY	190605	33685912	33340642	fukami662	694	NovaSeq S4	2x151	52363.4.312353.AATACGCG-CGCGTATT.filter-RNA.fastq.gz
GUOGY	190606	42774382	42404216	fukami663	695	NovaSeq S4	2x151	52363.3.312215.TCGCTGTT-AACAGCGA.filter-RNA.fastq.gz
GUNUC	190607	26270042	25842538	fukami664	696	NovaSeq S4	2x151	52365.1.312552.GCATACAG-CTGTATGC.filter-RNA.fastq.gz
GUOHP	190608	38720290	38456856	fukami665	697	NovaSeq S4	2x151	52363.3.312215.ACCATCCA-TGGATGGT.filter-RNA.fastq.gz
GUONN	190610	46765660	46245462	fukami667	698	NovaSeq S4	2x151	52363.3.312215.CCTTCCTT-AAGGAAGG.filter-RNA.fastq.gz
GUONU	190611	38363166	38119812	fukami668	699	NovaSeq S4	2x151	52363.3.312215.AGTAGTCC-GGACTACT.filter-RNA.fastq.gz
GUOHB	190612	38408712	37910346	fukami669	700	NovaSeq S4	2x151	52363.3.312215.ACGGAACA-TGTTCCGT.filter-RNA.fastq.gz
GUUWS	190613	36775110	36001322	fukami670	701	NovaSeq S4	2x151	52390.1.316167.CGACCATT-AATGGTCG.filter-RNA.fastq.gz
GUUXZ	190614	32230770	31868360	fukami671	702	NovaSeq S4	2x151	52390.1.316167.ATGGTCCA-TGGACCAT.filter-RNA.fastq.gz
GUPNC	190615	40534486	40342826	fukami672	703	NovaSeq S4	2x151	52363.4.312353.TACATCGG-CCGATGTA.filter-RNA.fastq.gz
GUOPC	190616	22486986	22154828	fukami681	704	NovaSeq S4	2x151	52363.3.312215.CACTGACA-TGTCAGTG.filter-RNA.fastq.gz
GUNTX	190617	37363160	36820558	fukami682	705	NovaSeq S4	2x151	52365.1.312552.ACCACGAT-ATCGTGGT.filter-RNA.fastq.gz
GUOHU	190618	70741788	69750038	fukami683	706	NovaSeq S4	2x151	52363.3.312215.TCCGAGTT-AACTCGGA.filter-RNA.fastq.gz
GUONS	190619	45137006	44748066	fukami684	707	NovaSeq S4	2x151	52363.3.312215.ACGATGAC-GTCATCGT.filter-RNA.fastq.gz
GUONH	190620	46824446	46184212	fukami685	708	NovaSeq S4	2x151	52363.3.312215.CAATCGAC-GTCGATTG.filter-RNA.fastq.gz
GUOPB	190621	51404688	51056740	fukami686	709	NovaSeq S4	2x151	52363.3.312215.TGGCATGT-ACATGCCA.filter-RNA.fastq.gz
GUOPA	190622	36042450	35609724	fukami687	710	NovaSeq S4	2x151	52363.3.312215.TAGTGACC-GGTCACTA.filter-RNA.fastq.gz
GUONC	190623	28412368	28052382	fukami688	711	NovaSeq S4	2x151	52363.3.312215.ATTGAGCC-GGCTCAAT.filter-RNA.fastq.gz
GUNXA	190624	35327372	34631052	fukami689	712	NovaSeq S4	2x151	52365.1.312552.GGCATACT-AGTATGCC.filter-RNA.fastq.gz
GUPNO	190625	43167854	42617588	fukami690	713	NovaSeq S4	2x151	52363.4.312353.GCTTCTTG-CAAGAAGC.filter-RNA.fastq.gz
GUPHY	190626	36754048	36351312	fukami691	714	NovaSeq S4	2x151	52363.4.312353.CAAGTGCA-TGCACTTG.filter-RNA.fastq.gz
GUNXU	190627	35778778	35212576	fukami692	715	NovaSeq S4	2x151	52365.1.312552.GAAGTTGG-CCAACTTC.filter-RNA.fastq.gz
GUOOW	190628	43234742	42991136	fukami693	716	NovaSeq S4	2x151	52363.3.312215.GCCATAAC-GTTATGGC.filter-RNA.fastq.gz
GUOHS	190629	28474380	28201314	fukami694	717	NovaSeq S4	2x151	52363.3.312215.GCTACGTT-AACGTAGC.filter-RNA.fastq.gz
GUPHA	190631	37420712	37171038	fukami696	718	NovaSeq S4	2x151	52363.4.312353.GCACTCAT-ATGAGTGC.filter-RNA.fastq.gz
GUNSH	214805	29218560	28858424	fukami129	719	NovaSeq S4	2x151	52365.1.312552.TTAGGTCG-CGACCTAA.filter-RNA.fastq.gz
GUNPX	214806	35537604	35218724	fukami130	720	NovaSeq S4	2x151	52365.1.312552.CTCTACTC-GAGTAGAG.filter-RNA.fastq.gz
GUSCP	214807	26689960	26051784	fukami131	721	NovaSeq S4	2x151	52365.1.312552.AGTGCAGT-ACTGCACT.filter-RNA.fastq.gz
GUSBH	214808	22533060	21887634	fukami132	722	NovaSeq S4	2x151	52365.1.312552.GTCTAGGT-ACCTAGAC.filter-RNA.fastq.gz
GUWTH	214809	34750938	34352124	fukami133	723	NovaSeq S4	2x151	52390.2.316305.TACCAACC-GGTTGGTA.filter-RNA.fastq.gz
GUGZW	214810	26307050	25788954	fukami134	724	NovaSeq S4	2x151	52360.4.311923.CGTTGAGT-ACTCAACG.filter-RNA.fastq.gz
GUSBG	214811	26946604	26700220	fukami135	725	NovaSeq S4	2x151	52365.1.312552.ATGGTCCA-TGGACCAT.filter-RNA.fastq.gz
GUSGA	214812	29499006	28805878	fukami136	726	NovaSeq S4	2x151	52365.1.312552.TAGCGTCT-AGACGCTA.filter-RNA.fastq.gz
GUYPU	214822	56640686	56042994	fukami290	727	NovaSeq S4	2x151	52370.3.313929.TTGCCACT-AGTGGCAA.filter-RNA.fastq.gz
GUWUN	214829	32137394	31894876	fukami81	728	NovaSeq S4	2x151	52390.2.316305.CGCTTAAC-GTTAAGCG.filter-RNA.fastq.gz
GUGZN	214830	25555362	25201260	fukami82	729	NovaSeq S4	2x151	52360.4.311923.TTGGACGT-ACGTCCAA.filter-RNA.fastq.gz
GUGZU	214831	24780454	24154080	fukami83	730	NovaSeq S4	2x151	52360.4.311923.CTCGATAC-GTATCGAG.filter-RNA.fastq.gz
GUNTG	214832	44128828	43582668	fukami84	731	NovaSeq S4	2x151	52365.1.312552.CGATGCTT-AAGCATCG.filter-RNA.fastq.gz
GUSGB	214833	36287540	35984334	fukami85	732	NovaSeq S4	2x151	52365.1.312552.AGCTCCTA-TAGGAGCT.filter-RNA.fastq.gz
GUNPO	214834	21422594	21170762	fukami86	733	NovaSeq S4	2x151	52365.1.312552.GCAAGATC-GATCTTGC.filter-RNA.fastq.gz
GUPPG	214835	41547828	41206382	fukami87	734	NovaSeq S4	2x151	52363.4.312353.ACGACTTG-CAAGTCGT.filter-RNA.fastq.gz
GUPPA	214836	55385854	55017646	fukami88	735	NovaSeq S4	2x151	52363.4.312353.ACCACGAT-ATCGTGGT.filter-RNA.fastq.gz
GUOOS	214837	50038262	49344412	fukami673	736	NovaSeq S4	2x151	52363.3.312215.ACCTCTGT-ACAGAGGT.filter-RNA.fastq.gz
GUNPA	214838	35818756	34422836	fukami674	737	NovaSeq S4	2x151	52365.1.312552.TTACGGCT-AGCCGTAA.filter-RNA.fastq.gz
GUUXY	214840	3795330	3607522	fukami676	738	NovaSeq S4	2x151	52390.1.316167.TAACCGGT-ACCGGTTA.filter-RNA.fastq.gz
GUUUT	214841	36486990	35919428	fukami677	739	NovaSeq S4	2x151	52390.1.316167.GTGAGCTT-AAGCTCAC.filter-RNA.fastq.gz
GUOOT	214842	45198544	44937166	fukami678	740	NovaSeq S4	2x151	52363.3.312215.TGGATCAC-GTGATCCA.filter-RNA.fastq.gz
GUNWW	214843	25758902	25269720	fukami679	741	NovaSeq S4	2x151	52365.1.312552.TGGTACAG-CTGTACCA.filter-RNA.fastq.gz
GUUZC	214844	19079832	18618020	fukami680	742	NovaSeq S4	2x151	52390.1.316167.CTATCGCA-TGCGATAG.filter-RNA.fastq.gz