"","pathways_name"
"1","2-ketoglutarate dehydrogenase complex"
"2","arginine biosynthesis"
"3","de novo biosynthesis of purine nucleotides"
"4","fatty acid biosynthesis, initial steps"
"5","fatty acid elongation"
"6","folate biosynthesis"
"7","gluconeogenesis"
"8","glyoxylate cycle"
"9","isoleucine biosynthesis"
"10","lysine biosynthesis"
"11","non-oxidative branch of the pentose phosphate pathway"
"12","oxidative branch of the pentose phosphate pathway"
"13","pyruvate dehydrogenase complex"
"14","removal of superoxide radicals"
"15","S-adenosylmethionine cycle"
"16","salvage pathways of purines and their nucleosides"
"17","sulfate assimilation pathway"
"18","thioredoxin system"
"19","trehalose biosynthesis"
"20","tryptophan degradation"
