jgi.p|Metreu1|18963  jgi.p|Metreu1|125156 jgi.p|Metreu1|154301 jgi.p|Metreu1|44481  
jgi.p|Metreu1|118798 jgi.p|Metreu1|13028  jgi.p|Metreu1|122802 jgi.p|Metreu1|114670 
jgi.p|Metreu1|137444 jgi.p|Metreu1|124376 jgi.p|Metreu1|34067  jgi.p|Metreu1|156277 
jgi.p|Metreu1|55828  jgi.p|Metreu1|115265 jgi.p|Metreu1|16099  jgi.p|Metreu1|89008  
jgi.p|Metreu1|140397 jgi.p|Metreu1|124926 jgi.p|Metreu1|165623 jgi.p|Metreu1|156141 
jgi.p|Metreu1|119312 jgi.p|Metreu1|86072  jgi.p|Metreu1|143846 jgi.p|Metreu1|119356 
jgi.p|Metreu1|124547 jgi.p|Metreu1|35539  jgi.p|Metreu1|122857 jgi.p|Metreu1|123255 
jgi.p|Metreu1|122010 jgi.p|Metreu1|158793 jgi.p|Metreu1|165188 jgi.p|Metreu1|157769 
jgi.p|Metreu1|123464 jgi.p|Metreu1|122804 jgi.p|Metreu1|125556 jgi.p|Metreu1|41462  
jgi.p|Metreu1|125865 jgi.p|Metreu1|161618 jgi.p|Metreu1|117946 jgi.p|Metreu1|140298 
jgi.p|Metreu1|18555  jgi.p|Metreu1|159438 jgi.p|Metreu1|116582 jgi.p|Metreu1|122673 
jgi.p|Metreu1|148565 jgi.p|Metreu1|144422 jgi.p|Metreu1|27627  jgi.p|Metreu1|125726 
jgi.p|Metreu1|34303  jgi.p|Metreu1|166377 jgi.p|Metreu1|124383 jgi.p|Metreu1|123263 
jgi.p|Metreu1|144194 jgi.p|Metreu1|126250 jgi.p|Metreu1|122436 jgi.p|Metreu1|154778 
jgi.p|Metreu1|37157  jgi.p|Metreu1|27345  jgi.p|Metreu1|117887 jgi.p|Metreu1|149486 
jgi.p|Metreu1|67902  jgi.p|Metreu1|18235  jgi.p|Metreu1|124380 jgi.p|Metreu1|122454 
jgi.p|Metreu1|113016 jgi.p|Metreu1|140285 jgi.p|Metreu1|38411  jgi.p|Metreu1|15794  
jgi.p|Metreu1|123668 jgi.p|Metreu1|123140 jgi.p|Metreu1|125489 jgi.p|Metreu1|142694 
jgi.p|Metreu1|125030 jgi.p|Metreu1|12918  jgi.p|Metreu1|166235 jgi.p|Metreu1|117782 
jgi.p|Metreu1|118731 jgi.p|Metreu1|50697  jgi.p|Metreu1|161321 jgi.p|Metreu1|86084  
jgi.p|Metreu1|140831 jgi.p|Metreu1|125484 jgi.p|Metreu1|157277 jgi.p|Metreu1|119167 
jgi.p|Metreu1|157540 jgi.p|Metreu1|140797 jgi.p|Metreu1|149225 jgi.p|Metreu1|126077 
jgi.p|Metreu1|25356  jgi.p|Metreu1|115358 jgi.p|Metreu1|86627  jgi.p|Metreu1|147912 
jgi.p|Metreu1|125626 jgi.p|Metreu1|144370 jgi.p|Metreu1|117737 jgi.p|Metreu1|13271  
jgi.p|Metreu1|118450 jgi.p|Metreu1|51806  jgi.p|Metreu1|137794 jgi.p|Metreu1|124022 
jgi.p|Metreu1|16125  jgi.p|Metreu1|119178 jgi.p|Metreu1|148595 jgi.p|Metreu1|125944 
jgi.p|Metreu1|115278 jgi.p|Metreu1|14315  jgi.p|Metreu1|119120 jgi.p|Metreu1|86786  
jgi.p|Metreu1|84780  jgi.p|Metreu1|26806  jgi.p|Metreu1|126178 jgi.p|Metreu1|143084 
jgi.p|Metreu1|119226 jgi.p|Metreu1|121785 jgi.p|Metreu1|38432  jgi.p|Metreu1|24238  
jgi.p|Metreu1|37540  jgi.p|Metreu1|125563 jgi.p|Metreu1|105154 jgi.p|Metreu1|118138 
jgi.p|Metreu1|51061  jgi.p|Metreu1|100494 jgi.p|Metreu1|123468 jgi.p|Metreu1|18266  
jgi.p|Metreu1|158524 jgi.p|Metreu1|144680 jgi.p|Metreu1|38212  jgi.p|Metreu1|84696  
jgi.p|Metreu1|145456 jgi.p|Metreu1|24607  jgi.p|Metreu1|143705 jgi.p|Metreu1|24259  
jgi.p|Metreu1|27904  jgi.p|Metreu1|125531 jgi.p|Metreu1|122856 jgi.p|Metreu1|121960 
jgi.p|Metreu1|125377 jgi.p|Metreu1|15196  jgi.p|Metreu1|41600  jgi.p|Metreu1|125098 
jgi.p|Metreu1|144369 jgi.p|Metreu1|137452 jgi.p|Metreu1|149464 jgi.p|Metreu1|124247 
jgi.p|Metreu1|126198 jgi.p|Metreu1|116368 jgi.p|Metreu1|125294 jgi.p|Metreu1|46340  
jgi.p|Metreu1|157144 jgi.p|Metreu1|155080 jgi.p|Metreu1|115804 jgi.p|Metreu1|156925 
jgi.p|Metreu1|16625  jgi.p|Metreu1|103763 jgi.p|Metreu1|148604 jgi.p|Metreu1|140856 
jgi.p|Metreu1|37670  jgi.p|Metreu1|35231  jgi.p|Metreu1|124839 jgi.p|Metreu1|26150  
jgi.p|Metreu1|140354 jgi.p|Metreu1|84083  jgi.p|Metreu1|117905 jgi.p|Metreu1|125815 
jgi.p|Metreu1|37162  jgi.p|Metreu1|46220  jgi.p|Metreu1|155219 jgi.p|Metreu1|118094 
jgi.p|Metreu1|13062  jgi.p|Metreu1|45696  jgi.p|Metreu1|118092 jgi.p|Metreu1|158356 
jgi.p|Metreu1|140998 jgi.p|Metreu1|143637 jgi.p|Metreu1|56383  jgi.p|Metreu1|124868
