"0","# create interaction data frame"
"0","interaction_df = covar_clean_filt %>% "
"0","  dplyr::select(sample, treatment) %>% "
"0","  # make numeric"
"0","  mutate(treatmentHigh = as.numeric(treatment == ""high"")) %>% "
"0","  dplyr::select(-treatment)"
"0",""
"0","head(interaction_df)"
