"0","covar_clean_merge = covar_clean %>% "
"0","  # join and check for strain consistency"
"0","  rename(covariate_strain = strain) %>% "
"0","  left_join(metadata %>% "
"0","              rename(metadata_strain = strain) %>% "
"0","              mutate(metadata_strain = str_remove(metadata_strain, ""(_)?[ab]$""))) %>% "
"0","  mutate(strain = ifelse(covariate_strain == metadata_strain, metadata_strain, NA)) %>% "
"0","  # add unique identifier for each latitude + longitude combo"
"0","  group_by(latitude, longitude) %>% "
"0","  mutate(site_id = cur_group_id()) %>% "
"0","  ungroup()"
"1","[38;5;232mJoining, by = ""sample""[39m
"
"0","head(covar_clean_merge)"
