"0","aa_growth_df <- growth_df %>% filter(sugar == ""regular sugar"" & amino_acid != ""regular amino acids"") "
"0",""
"0","aa_growth_df <- aa_growth_df %>% select(amino_acid, strain, phy_group, growth)"
"0",""
"0","#Calculate averages and standard deviation between rounds of the experiment:  "
"0","aa_growth_df <- aa_growth_df %>% group_by(amino_acid, strain, phy_group) %>% summarize(growth_mean = mean(growth), growth_sd = sd(growth)) "
"2","`summarise()` has grouped output by 'amino_acid', 'strain'. You can override using the `.groups` argument."
"0","#rename columns to be aligned with other dataset: "
"0","aa_growth_df <- mutate(aa_growth_df, amino_acid = recode(amino_acid, "
"0","                                 ""low amino acids"" = ""low"", "
"0","                                 ""high amino acids"" = ""high""))"
"0",""
"0","aa_growth_df <- aa_growth_df %>% "
"0","  rename("
"0","    treatment = amino_acid)"
"0",""
"0",""
