"0","df <- left_join(df_QTLs, interpro_top, by=""transcriptId"")"
"0",""
"0","#take top score: "
"0","df <- df %>% group_by(transcriptId) %>% slice_max(order_by=score, n=1)"
"0",""
"0","#export as CSV: "
"0","write.csv(df, ""all_eQTL.csv"")"
"0",""
