"0","#create a list of sampleFiles:"
"0","#sampleFiles <- grep("".txt"",list.files(directory),value=TRUE)"
"0","#make a list of conditions: "
"0","strain <- c(""MY0551"", ""MY0551"", ""MY0551"", ""MY0551"", ""Y642"", ""Y642"", ""Y642"")"
"0","#make a sample table: "
"0","sampleTable_strain <- data.frame(sampleName = sampleFiles,"
"0","                          fileName = sampleFiles,"
"0","                          condition = strain)"
