"0","#import file with sample names: "
"0","#df_valine <- read_csv(""NEG_peak_height.tab - valine_manual_data.csv"", "
"0","#    skip = 2)"
"0",""
"0","df_valine <- read_csv(""NEG_peak_height.tab - valine_difference.csv"")"
"2","New names:"
"2","[1mRows: [22m[34m499[39m [1mColumns: [22m[34m16[39m"
"2","[36m──[39m [1mColumn specification[22m [36m──────────────────────────────────────────────────────────────────────────────────────[39m
[1mDelimiter:[22m "",""
[31mchr[39m (13): group, file, short_groupname, sample_treatment, short_filename, short_samplename, 0028_valine_U1...
[32mdbl[39m  (3): 0029_valine_unlabeled_negative_M-H116p0717_11p24, uM, difference_uM"
"2","
[36mℹ[39m Use `spec()` to retrieve the full column specification for this data.
[36mℹ[39m Specify the column types or set `show_col_types = FALSE` to quiet this message."
"0","#change uM to numeric: "
"0","df_valine$difference_uM <- as.numeric(df_valine$difference_uM)"
"0",""
"0","#Change ""HIgh"" to ""High"" "
"0","df_valine <- df_valine %>% mutate(nectar = str_replace(nectar, ""HIgh"", ""High""))"
"0",""
"0","#add strain metadata df to pcaData: "
"0","df_valine <- left_join(df_valine, strain_metadata_from_Dhamietal2018, by=""strain"")"
"0",""
