"0","sig_GO$weight <- as.numeric(sig_GO$weight)"
"0",""
"0","bubble_plot <- ggplot(sig_GO, aes(y=reorder(Term, as.numeric(weight)), x=weight, size=Significant)) +"
"0","  geom_point() +"
"0","  xlim(0, 0.2)"
"0","  "
"0","bubble_plot"
