"0","  "
"0","total_to_plot %>% "
"0","  ggplot() +"
"0","    geom_histogram(aes(x=total_counts, color=strain_group, fill=strain_group), alpha = 0.4) +"
"0","    theme_bw(base_size = 12) +"
"0","    scale_color_manual(values = c(""grey37"", ""red"")) +"
"0","    scale_fill_manual(values = c(""grey37"", ""red"")) +"
"0","    # facet_wrap( vars(strain_group), scales = ""free_y"") +"
"0","    scale_x_continuous(labels = scales::comma) +"
"0","    theme_bw() #+"
"2","`stat_bin()` using `bins = 30`. Pick better value with `binwidth`.
"
