Scaffolds with expression:
Dropping non-PC covariates
Testing chromosome sc0000004
cis-QTL mapping: nominal associations for all variant-phenotype pairs
  * 710 samples
  * 789 phenotypes
  * 33 covariates
  * 7368 variants
  * including 1 interaction term(s)
    * using 0.05 MAF threshold
  * checking phenotypes: 789/789
  * Computing associations
    Mapping chromosome sc0000004
    processing phenotype 1/789    processing phenotype 2/789    processing phenotype 3/789    processing phenotype 4/789    processing phenotype 5/789    processing phenotype 6/789    processing phenotype 7/789    processing phenotype 8/789    processing phenotype 9/789    processing phenotype 10/789    processing phenotype 11/789    processing phenotype 12/789    processing phenotype 13/789    processing phenotype 14/789    processing phenotype 15/789    processing phenotype 16/789    processing phenotype 17/789    processing phenotype 18/789    processing phenotype 19/789    processing phenotype 20/789    processing phenotype 21/789    processing phenotype 22/789    processing phenotype 23/789    processing phenotype 24/789    processing phenotype 25/789    processing phenotype 26/789    processing phenotype 27/789    processing phenotype 28/789    processing phenotype 29/789    processing phenotype 30/789    processing phenotype 31/789    processing phenotype 32/789    processing phenotype 33/789    processing phenotype 34/789    processing phenotype 35/789    processing phenotype 36/789    processing phenotype 37/789    processing phenotype 38/789    processing phenotype 39/789    processing phenotype 40/789    processing phenotype 41/789    processing phenotype 42/789    processing phenotype 43/789    processing phenotype 44/789    processing phenotype 45/789    processing phenotype 46/789    processing phenotype 47/789    processing phenotype 48/789    processing phenotype 49/789    processing phenotype 50/789    processing phenotype 51/789    processing phenotype 52/789    processing phenotype 53/789    processing phenotype 54/789    processing phenotype 55/789    processing phenotype 56/789    processing phenotype 57/789    processing phenotype 58/789    processing phenotype 59/789    processing phenotype 60/789    processing phenotype 61/789    processing phenotype 62/789    processing phenotype 63/789    processing phenotype 64/789    processing phenotype 65/789    processing phenotype 66/789    processing phenotype 67/789    processing phenotype 68/789    processing phenotype 69/789    processing phenotype 70/789    processing phenotype 71/789    processing phenotype 72/789    processing phenotype 73/789    processing phenotype 74/789    processing phenotype 75/789    processing phenotype 76/789    processing phenotype 77/789    processing phenotype 78/789    processing phenotype 79/789    processing phenotype 80/789    processing phenotype 81/789    processing phenotype 82/789    processing phenotype 83/789    processing phenotype 84/789    processing phenotype 85/789    processing phenotype 86/789    processing phenotype 87/789    processing phenotype 88/789    processing phenotype 89/789    processing phenotype 90/789    processing phenotype 91/789    processing phenotype 92/789    processing phenotype 93/789    processing phenotype 94/789    processing phenotype 95/789    processing phenotype 96/789    processing phenotype 97/789    processing phenotype 98/789    processing phenotype 99/789    processing phenotype 100/789    processing phenotype 101/789    processing phenotype 102/789    processing phenotype 103/789    processing phenotype 104/789    processing phenotype 105/789    processing phenotype 106/789    processing phenotype 107/789    processing phenotype 108/789    processing phenotype 109/789    processing phenotype 110/789    processing phenotype 111/789    processing phenotype 112/789    processing phenotype 113/789    processing phenotype 114/789    processing phenotype 115/789    processing phenotype 116/789    processing phenotype 117/789    processing phenotype 118/789    processing phenotype 119/789    processing phenotype 120/789    processing phenotype 121/789    processing phenotype 122/789    processing phenotype 123/789    processing phenotype 124/789    processing phenotype 125/789    processing phenotype 126/789    processing phenotype 127/789    processing phenotype 128/789    processing phenotype 129/789    processing phenotype 130/789    processing phenotype 131/789    processing phenotype 132/789    processing phenotype 133/789    processing phenotype 134/789    processing phenotype 135/789    processing phenotype 136/789    processing phenotype 137/789    processing phenotype 138/789    processing phenotype 139/789    processing phenotype 140/789    processing phenotype 141/789    processing phenotype 142/789    processing phenotype 143/789    processing phenotype 144/789    processing phenotype 145/789    processing phenotype 146/789    processing phenotype 147/789    processing phenotype 148/789    processing phenotype 149/789    processing phenotype 150/789    processing phenotype 151/789    processing phenotype 152/789    processing phenotype 153/789    processing phenotype 154/789    processing phenotype 155/789    processing phenotype 156/789    processing phenotype 157/789    processing phenotype 158/789    processing phenotype 159/789    processing phenotype 160/789    processing phenotype 161/789    processing phenotype 162/789    processing phenotype 163/789    processing phenotype 164/789    processing phenotype 165/789    processing phenotype 166/789    processing phenotype 167/789    processing phenotype 168/789    processing phenotype 169/789    processing phenotype 170/789    processing phenotype 171/789    processing phenotype 172/789    processing phenotype 173/789    processing phenotype 174/789    processing phenotype 175/789    processing phenotype 176/789    processing phenotype 177/789    processing phenotype 178/789    processing phenotype 179/789    processing phenotype 180/789    processing phenotype 181/789    processing phenotype 182/789    processing phenotype 183/789    processing phenotype 184/789    processing phenotype 185/789    processing phenotype 186/789    processing phenotype 187/789    processing phenotype 188/789    processing phenotype 189/789    processing phenotype 190/789    processing phenotype 191/789    processing phenotype 192/789    processing phenotype 193/789    processing phenotype 194/789    processing phenotype 195/789    processing phenotype 196/789    processing phenotype 197/789    processing phenotype 198/789    processing phenotype 199/789    processing phenotype 200/789    processing phenotype 201/789    processing phenotype 202/789    processing phenotype 203/789    processing phenotype 204/789    processing phenotype 205/789    processing phenotype 206/789    processing phenotype 207/789    processing phenotype 208/789    processing phenotype 209/789    processing phenotype 210/789    processing phenotype 211/789    processing phenotype 212/789    processing phenotype 213/789    processing phenotype 214/789    processing phenotype 215/789    processing phenotype 216/789    processing phenotype 217/789    processing phenotype 218/789    processing phenotype 219/789    processing phenotype 220/789    processing phenotype 221/789    processing phenotype 222/789    processing phenotype 223/789    processing phenotype 224/789    processing phenotype 225/789    processing phenotype 226/789    processing phenotype 227/789    processing phenotype 228/789    processing phenotype 229/789    processing phenotype 230/789    processing phenotype 231/789    processing phenotype 232/789    processing phenotype 233/789    processing phenotype 234/789    processing phenotype 235/789    processing phenotype 236/789    processing phenotype 237/789    processing phenotype 238/789    processing phenotype 239/789    processing phenotype 240/789    processing phenotype 241/789    processing phenotype 242/789    processing phenotype 243/789    processing phenotype 244/789    processing phenotype 245/789    processing phenotype 246/789    processing phenotype 247/789    processing phenotype 248/789    processing phenotype 249/789    processing phenotype 250/789    processing phenotype 251/789    processing phenotype 252/789    processing phenotype 253/789    processing phenotype 254/789    processing phenotype 255/789    processing phenotype 256/789    processing phenotype 257/789    processing phenotype 258/789    processing phenotype 259/789    processing phenotype 260/789    processing phenotype 261/789    processing phenotype 262/789    processing phenotype 263/789    processing phenotype 264/789    processing phenotype 265/789    processing phenotype 266/789    processing phenotype 267/789    processing phenotype 268/789    processing phenotype 269/789    processing phenotype 270/789    processing phenotype 271/789    processing phenotype 272/789    processing phenotype 273/789    processing phenotype 274/789    processing phenotype 275/789    processing phenotype 276/789    processing phenotype 277/789    processing phenotype 278/789    processing phenotype 279/789    processing phenotype 280/789    processing phenotype 281/789    processing phenotype 282/789    processing phenotype 283/789    processing phenotype 284/789    processing phenotype 285/789    processing phenotype 286/789    processing phenotype 287/789    processing phenotype 288/789    processing phenotype 289/789    processing phenotype 290/789    processing phenotype 291/789    processing phenotype 292/789    processing phenotype 293/789    processing phenotype 294/789    processing phenotype 295/789    processing phenotype 296/789    processing phenotype 297/789    processing phenotype 298/789    processing phenotype 299/789    processing phenotype 300/789    processing phenotype 301/789    processing phenotype 302/789    processing phenotype 303/789    processing phenotype 304/789    processing phenotype 305/789    processing phenotype 306/789    processing phenotype 307/789    processing phenotype 308/789    processing phenotype 309/789    processing phenotype 310/789    processing phenotype 311/789    processing phenotype 312/789    processing phenotype 313/789    processing phenotype 314/789    processing phenotype 315/789    processing phenotype 316/789    processing phenotype 317/789    processing phenotype 318/789    processing phenotype 319/789    processing phenotype 320/789    processing phenotype 321/789    processing phenotype 322/789    processing phenotype 323/789    processing phenotype 324/789    processing phenotype 325/789    processing phenotype 326/789    processing phenotype 327/789    processing phenotype 328/789    processing phenotype 329/789    processing phenotype 330/789    processing phenotype 331/789    processing phenotype 332/789    processing phenotype 333/789    processing phenotype 334/789    processing phenotype 335/789    processing phenotype 336/789    processing phenotype 337/789    processing phenotype 338/789    processing phenotype 339/789    processing phenotype 340/789    processing phenotype 341/789    processing phenotype 342/789    processing phenotype 343/789    processing phenotype 344/789    processing phenotype 345/789    processing phenotype 346/789    processing phenotype 347/789    processing phenotype 348/789    processing phenotype 349/789    processing phenotype 350/789    processing phenotype 351/789    processing phenotype 352/789    processing phenotype 353/789    processing phenotype 354/789    processing phenotype 355/789    processing phenotype 356/789    processing phenotype 357/789    processing phenotype 358/789    processing phenotype 359/789    processing phenotype 360/789    processing phenotype 361/789    processing phenotype 362/789    processing phenotype 363/789    processing phenotype 364/789    processing phenotype 365/789    processing phenotype 366/789    processing phenotype 367/789    processing phenotype 368/789    processing phenotype 369/789    processing phenotype 370/789    processing phenotype 371/789    processing phenotype 372/789    processing phenotype 373/789    processing phenotype 374/789    processing phenotype 375/789    processing phenotype 376/789    processing phenotype 377/789    processing phenotype 378/789    processing phenotype 379/789    processing phenotype 380/789    processing phenotype 381/789    processing phenotype 382/789    processing phenotype 383/789    processing phenotype 384/789    processing phenotype 385/789    processing phenotype 386/789    processing phenotype 387/789    processing phenotype 388/789    processing phenotype 389/789    processing phenotype 390/789    processing phenotype 391/789    processing phenotype 392/789    processing phenotype 393/789    processing phenotype 394/789    processing phenotype 395/789    processing phenotype 396/789    processing phenotype 397/789    processing phenotype 398/789    processing phenotype 399/789    processing phenotype 400/789    processing phenotype 401/789    processing phenotype 402/789    processing phenotype 403/789    processing phenotype 404/789    processing phenotype 405/789    processing phenotype 406/789    processing phenotype 407/789    processing phenotype 408/789    processing phenotype 409/789    processing phenotype 410/789    processing phenotype 411/789    processing phenotype 412/789    processing phenotype 413/789    processing phenotype 414/789    processing phenotype 415/789    processing phenotype 416/789    processing phenotype 417/789    processing phenotype 418/789    processing phenotype 419/789    processing phenotype 420/789    processing phenotype 421/789    processing phenotype 422/789    processing phenotype 423/789    processing phenotype 424/789    processing phenotype 425/789    processing phenotype 426/789    processing phenotype 427/789    processing phenotype 428/789    processing phenotype 429/789    processing phenotype 430/789    processing phenotype 431/789    processing phenotype 432/789    processing phenotype 433/789    processing phenotype 434/789    processing phenotype 435/789    processing phenotype 436/789    processing phenotype 437/789    processing phenotype 438/789    processing phenotype 439/789    processing phenotype 440/789    processing phenotype 441/789    processing phenotype 442/789    processing phenotype 443/789    processing phenotype 444/789    processing phenotype 445/789    processing phenotype 446/789    processing phenotype 447/789    processing phenotype 448/789    processing phenotype 449/789    processing phenotype 450/789    processing phenotype 451/789    processing phenotype 452/789    processing phenotype 453/789    processing phenotype 454/789    processing phenotype 455/789    processing phenotype 456/789    processing phenotype 457/789    processing phenotype 458/789    processing phenotype 459/789    processing phenotype 460/789    processing phenotype 461/789    processing phenotype 462/789    processing phenotype 463/789    processing phenotype 464/789    processing phenotype 465/789    processing phenotype 466/789    processing phenotype 467/789    processing phenotype 468/789    processing phenotype 469/789    processing phenotype 470/789    processing phenotype 471/789    processing phenotype 472/789    processing phenotype 473/789    processing phenotype 474/789    processing phenotype 475/789    processing phenotype 476/789    processing phenotype 477/789    processing phenotype 478/789    processing phenotype 479/789    processing phenotype 480/789    processing phenotype 481/789    processing phenotype 482/789    processing phenotype 483/789    processing phenotype 484/789    processing phenotype 485/789    processing phenotype 486/789    processing phenotype 487/789    processing phenotype 488/789    processing phenotype 489/789    processing phenotype 490/789    processing phenotype 491/789    processing phenotype 492/789    processing phenotype 493/789    processing phenotype 494/789    processing phenotype 495/789    processing phenotype 496/789    processing phenotype 497/789    processing phenotype 498/789    processing phenotype 499/789    processing phenotype 500/789    processing phenotype 501/789    processing phenotype 502/789    processing phenotype 503/789    processing phenotype 504/789    processing phenotype 505/789    processing phenotype 506/789    processing phenotype 507/789    processing phenotype 508/789    processing phenotype 509/789    processing phenotype 510/789    processing phenotype 511/789    processing phenotype 512/789    processing phenotype 513/789    processing phenotype 514/789    processing phenotype 515/789    processing phenotype 516/789    processing phenotype 517/789    processing phenotype 518/789    processing phenotype 519/789    processing phenotype 520/789    processing phenotype 521/789    processing phenotype 522/789    processing phenotype 523/789    processing phenotype 524/789    processing phenotype 525/789    processing phenotype 526/789    processing phenotype 527/789    processing phenotype 528/789    processing phenotype 529/789    processing phenotype 530/789    processing phenotype 531/789    processing phenotype 532/789    processing phenotype 533/789    processing phenotype 534/789    processing phenotype 535/789    processing phenotype 536/789    processing phenotype 537/789    processing phenotype 538/789    processing phenotype 539/789    processing phenotype 540/789    processing phenotype 541/789    processing phenotype 542/789    processing phenotype 543/789    processing phenotype 544/789    processing phenotype 545/789    processing phenotype 546/789    processing phenotype 547/789    processing phenotype 548/789    processing phenotype 549/789    processing phenotype 550/789    processing phenotype 551/789    processing phenotype 552/789    processing phenotype 553/789    processing phenotype 554/789    processing phenotype 555/789    processing phenotype 556/789    processing phenotype 557/789    processing phenotype 558/789    processing phenotype 559/789    processing phenotype 560/789    processing phenotype 561/789    processing phenotype 562/789    processing phenotype 563/789    processing phenotype 564/789    processing phenotype 565/789    processing phenotype 566/789    processing phenotype 567/789    processing phenotype 568/789    processing phenotype 569/789    processing phenotype 570/789    processing phenotype 571/789    processing phenotype 572/789    processing phenotype 573/789    processing phenotype 574/789    processing phenotype 575/789    processing phenotype 576/789    processing phenotype 577/789    processing phenotype 578/789    processing phenotype 579/789    processing phenotype 580/789    processing phenotype 581/789    processing phenotype 582/789    processing phenotype 583/789    processing phenotype 584/789    processing phenotype 585/789    processing phenotype 586/789    processing phenotype 587/789    processing phenotype 588/789    processing phenotype 589/789    processing phenotype 590/789    processing phenotype 591/789    processing phenotype 592/789    processing phenotype 593/789    processing phenotype 594/789    processing phenotype 595/789    processing phenotype 596/789    processing phenotype 597/789    processing phenotype 598/789    processing phenotype 599/789    processing phenotype 600/789    processing phenotype 601/789    processing phenotype 602/789    processing phenotype 603/789    processing phenotype 604/789    processing phenotype 605/789    processing phenotype 606/789    processing phenotype 607/789    processing phenotype 608/789    processing phenotype 609/789    processing phenotype 610/789    processing phenotype 611/789    processing phenotype 612/789    processing phenotype 613/789    processing phenotype 614/789    processing phenotype 615/789    processing phenotype 616/789    processing phenotype 617/789    processing phenotype 618/789    processing phenotype 619/789    processing phenotype 620/789    processing phenotype 621/789    processing phenotype 622/789    processing phenotype 623/789    processing phenotype 624/789    processing phenotype 625/789    processing phenotype 626/789    processing phenotype 627/789    processing phenotype 628/789    processing phenotype 629/789    processing phenotype 630/789    processing phenotype 631/789    processing phenotype 632/789    processing phenotype 633/789    processing phenotype 634/789    processing phenotype 635/789    processing phenotype 636/789    processing phenotype 637/789    processing phenotype 638/789    processing phenotype 639/789    processing phenotype 640/789    processing phenotype 641/789    processing phenotype 642/789    processing phenotype 643/789    processing phenotype 644/789    processing phenotype 645/789    processing phenotype 646/789    processing phenotype 647/789    processing phenotype 648/789    processing phenotype 649/789    processing phenotype 650/789    processing phenotype 651/789    processing phenotype 652/789    processing phenotype 653/789    processing phenotype 654/789    processing phenotype 655/789    processing phenotype 656/789    processing phenotype 657/789    processing phenotype 658/789    processing phenotype 659/789    processing phenotype 660/789    processing phenotype 661/789    processing phenotype 662/789    processing phenotype 663/789    processing phenotype 664/789    processing phenotype 665/789    processing phenotype 666/789    processing phenotype 667/789    processing phenotype 668/789    processing phenotype 669/789    processing phenotype 670/789    processing phenotype 671/789    processing phenotype 672/789    processing phenotype 673/789    processing phenotype 674/789    processing phenotype 675/789    processing phenotype 676/789    processing phenotype 677/789    processing phenotype 678/789    processing phenotype 679/789    processing phenotype 680/789    processing phenotype 681/789    processing phenotype 682/789    processing phenotype 683/789    processing phenotype 684/789    processing phenotype 685/789    processing phenotype 686/789    processing phenotype 687/789    processing phenotype 688/789    processing phenotype 689/789    processing phenotype 690/789    processing phenotype 691/789    processing phenotype 692/789    processing phenotype 693/789    processing phenotype 694/789    processing phenotype 695/789    processing phenotype 696/789    processing phenotype 697/789    processing phenotype 698/789    processing phenotype 699/789    processing phenotype 700/789    processing phenotype 701/789    processing phenotype 702/789    processing phenotype 703/789    processing phenotype 704/789    processing phenotype 705/789    processing phenotype 706/789    processing phenotype 707/789    processing phenotype 708/789    processing phenotype 709/789    processing phenotype 710/789    processing phenotype 711/789    processing phenotype 712/789    processing phenotype 713/789    processing phenotype 714/789    processing phenotype 715/789    processing phenotype 716/789    processing phenotype 717/789    processing phenotype 718/789    processing phenotype 719/789    processing phenotype 720/789    processing phenotype 721/789    processing phenotype 722/789    processing phenotype 723/789    processing phenotype 724/789    processing phenotype 725/789    processing phenotype 726/789    processing phenotype 727/789    processing phenotype 728/789    processing phenotype 729/789    processing phenotype 730/789    processing phenotype 731/789    processing phenotype 732/789    processing phenotype 733/789    processing phenotype 734/789    processing phenotype 735/789    processing phenotype 736/789    processing phenotype 737/789    processing phenotype 738/789    processing phenotype 739/789    processing phenotype 740/789    processing phenotype 741/789    processing phenotype 742/789    processing phenotype 743/789    processing phenotype 744/789    processing phenotype 745/789    processing phenotype 746/789    processing phenotype 747/789    processing phenotype 748/789    processing phenotype 749/789    processing phenotype 750/789    processing phenotype 751/789    processing phenotype 752/789    processing phenotype 753/789    processing phenotype 754/789    processing phenotype 755/789    processing phenotype 756/789    processing phenotype 757/789    processing phenotype 758/789    processing phenotype 759/789    processing phenotype 760/789    processing phenotype 761/789    processing phenotype 762/789    processing phenotype 763/789    processing phenotype 764/789    processing phenotype 765/789    processing phenotype 766/789    processing phenotype 767/789    processing phenotype 768/789    processing phenotype 769/789    processing phenotype 770/789    processing phenotype 771/789    processing phenotype 772/789    processing phenotype 773/789    processing phenotype 774/789    processing phenotype 775/789    processing phenotype 776/789    processing phenotype 777/789    processing phenotype 778/789    processing phenotype 779/789    processing phenotype 780/789    processing phenotype 781/789    processing phenotype 782/789    processing phenotype 783/789    processing phenotype 784/789    processing phenotype 785/789    processing phenotype 786/789    processing phenotype 787/789    processing phenotype 788/789    processing phenotype 789/789
    time elapsed: 6.48 min
    * writing output
