Warning: 'rfunc' cannot be imported. R and the 'rpy2' Python package are needed.
Scaffolds with expression:
cis-QTL mapping: nominal associations for all variant-phenotype pairs
  * 710 samples
  * 12 phenotypes
  * 36 covariates
  * 2754 variants
  * including 1 interaction term(s)
    * using 0.05 MAF threshold
  * checking phenotypes: 12/12
  * Computing associations
    Mapping chromosome sc0000010
    processing phenotype 1/12    processing phenotype 2/12    processing phenotype 3/12    processing phenotype 4/12    processing phenotype 5/12    processing phenotype 6/12    processing phenotype 7/12    processing phenotype 8/12    processing phenotype 9/12    processing phenotype 10/12    processing phenotype 11/12    processing phenotype 12/12
    time elapsed: 0.05 min
    * writing output
done.
