"0","# are there columns with all missing genotypes?"
"0","samples_missing_geno = snps_t %>% select_if(~ all(.==-1)) %>% names()"
"0",""
"0","# save strains for samples with missing genotypes"
"0","strains_missing_geno = covar_clean %>% "
"0","  filter(sample %in% samples_missing_geno) %>% "
"0","  pull(strain) %>% "
"0","  unique()"
"0",""
"0","if(length(samples_missing_geno) == 0){"
"0","  cat(paste0(""\n0 Samples missing genotypes across all snps\n""))"
"0","} else {"
"0","  cat(paste0(""\n"", length(samples_missing_geno), "
"0","             "" samples missing genotypes across all snps:\n"", "
"0","             paste0(samples_missing_geno, collapse = "", ""), ""\n"","
"0","             ""\nThese samples represent "", length(strains_missing_geno),"
"0","             "" strains: "", paste0(strains_missing_geno, collapse = "", ""), ""\n""))"
"0","}"
"1","
32 samples missing genotypes across all snps:
fukami1, fukami2, fukami3, fukami4, fukami5, fukami6, fukami7, fukami8, fukami129, fukami130, fukami131, fukami132, fukami133, fukami134, fukami135, fukami136, fukami81, fukami82, fukami83, fukami84, fukami85, fukami86, fukami87, fukami88, fukami673, fukami674, fukami675, fukami676, fukami677, fukami678, fukami679, fukami680

These samples represent 3 strains: Y413, Y962, Y983
"
