"0",""
"0","# did each strain draw down amino acids differently based on the nectar? "
"0","lysine_boxplot_h1 <- ggplot(filter(df_lysine, strain!=""CalibStd"" & nectar==""High"" | strain!=""CalibStd"" & nectar==""Cond""), aes(x=nectar, y=difference_uM, color=Genotype)) +"
"0","  geom_boxplot() +"
"0","  geom_jitter(aes(alpha=0.5)) +"
"0","  facet_wrap(.~strain) +"
"0","  theme(axis.text.x = element_text(angle = 90, vjust = 0.5, hjust=1), legend.position=""none"") +"
"0","  ylab(""Change in Lysine concentration (uM)"") +"
"0","  stat_compare_means(comparisons = list(c(""High"", ""Cond"")), method=""t.test"") +"
"0","  scale_color_manual(values = genotype_colors)"
"0",""
"0","lysine_boxplot_h1"
