"0","tyrosine_boxplot_h4 <- ggplot(filter(df_tyrosine, strain!=""CalibStd"" & nectar==""High"" | strain!=""CalibStd"" & nectar==""Cond""), aes(x=nectar, y=difference_uM)) +"
"0","  geom_boxplot() +"
"0","  geom_jitter(aes(alpha=0.5)) +"
"0","  theme(axis.text.x = element_text(angle = 90, vjust = 0.5, hjust=1), legend.position=""none"") +"
"0","  ylab(""Change in Tyrosine concentration (uM)"") +"
"0","  scale_color_manual(values = genotype_colors) +"
"0","  stat_compare_means(comparisons = list(c(""Cond"", ""High"")), method=""t.test"", aes(label=..p.adj..))  +"
"0","  geom_hline(yintercept=0, linetype=""dashed"", color = ""grey"")"
"0",""
"0","tyrosine_boxplot_h4"
