"0","library(readr)"
"0","library(knitr)"
"0","full_df <- read_csv(""~/Box Sync/Stanford/Protocols/Transcriptomics/Spreadsheets/mimulus_nectar_amino_acids_clean.csv"")"
"2","Missing column names filled in: 'X33' [33], 'X34' [34], 'X35' [35], 'X36' [36], 'X37' [37], 'X38' [38], 'X39' [39], 'X40' [40], 'X41' [41], 'X42' [42], 'X43' [43], 'X44' [44], 'X45' [45], 'X46' [46], 'X47' [47], 'X48' [48], 'X49' [49], 'X50' [50], 'X51' [51], 'X52' [52], 'X53' [53], 'X54' [54], 'X55' [55], 'X56' [56], 'X57' [57], 'X58' [58], 'X59' [59], 'X60' [60], 'X61' [61]"
"2","Parsed with column specification:
cols(
  .default = col_character(),
  Day = col_integer(),
  Replicate = col_integer(),
  ARG = col_double(),
  CIT1 = col_double(),
  SER1 = col_double(),
  `3MHIS` = col_double(),
  HYP = col_double(),
  GLY = col_double(),
  THR = col_double(),
  THR2 = col_double(),
  ALA = col_double(),
  GABA1 = col_double(),
  bAIB = col_double(),
  SAR = col_double(),
  ABA = col_double(),
  ORN1 = col_double(),
  `MET-SO` = col_double(),
  PRO = col_double(),
  LYS = col_double(),
  ASP = col_double()
  # ... with 8 more columns
)
"
"2","See spec(...) for full column specifications.
"
"0","head(full_df)"
