"0","df_alanine_final <- df_alanine %>% select(uM, strain, nectar, concentration, amino_acid)
"
"2","Error in df_alanine %>% select(uM, strain, nectar, concentration, amino_acid) : 
  could not find function ""%>%""
"
